{
  "end" : "2021-06-30T15:09:37Z",
  "granularity" : "PT24H",
  "groupId" : "5d5ce93aff7a259f5eb7a2db",
  "hostId" : "prod-shard-00-01-etya8.azure.mongodb.net:27017",
  "links" : [ {
    "href" : "https://cloud.mongodb.com/api/atlas/v1.0/groups/5d5ce93aff7a259f5eb7a2db/processes/prod-shard-00-01.etya8.azure.mongodb.net:27017/measurements?granularity=PT24H&period=PT168H&pretty=true",
    "rel" : "self"
  }, {
    "href" : "https://cloud.mongodb.com/api/atlas/v1.0/groups/5d5ce93aff7a259f5eb7a2db/processes/prod-shard-00-01-etya8.azure.mongodb.net:27017",
    "rel" : "http://cloud.mongodb.com/host"
  } ],
  "measurements" : [ {
    "dataPoints" : [ {
      "timestamp" : "2021-06-24T14:09:27Z",
      "value" : null
    }, {
      "timestamp" : "2021-06-25T14:09:06Z",
      "value" : 0.0
    }, {
      "timestamp" : "2021-06-26T15:09:07Z",
      "value" : 0.0
    }, {
      "timestamp" : "2021-06-27T15:09:15Z",
      "value" : 0.0
    }, {
      "timestamp" : "2021-06-28T15:09:07Z",
      "value" : 0.0
    }, {
      "timestamp" : "2021-06-29T15:08:36Z",
      "value" : 0.0
    }, {
      "timestamp" : "2021-06-30T15:09:37Z",
      "value" : 0.0
    } ],
    "name" : "ASSERT_REGULAR",
    "units" : "SCALAR_PER_SECOND"
  }, {
    "dataPoints" : [ {
      "timestamp" : "2021-06-24T14:09:27Z",
      "value" : null
    }, {
      "timestamp" : "2021-06-25T14:09:06Z",
      "value" : 0.0
    }, {
      "timestamp" : "2021-06-26T15:09:07Z",
      "value" : 0.0
    }, {
      "timestamp" : "2021-06-27T15:09:15Z",
      "value" : 0.0
    }, {
      "timestamp" : "2021-06-28T15:09:07Z",
      "value" : 0.0
    }, {
      "timestamp" : "2021-06-29T15:08:36Z",
      "value" : 0.0
    }, {
      "timestamp" : "2021-06-30T15:09:37Z",
      "value" : 0.0
    } ],
    "name" : "ASSERT_WARNING",
    "units" : "SCALAR_PER_SECOND"
  }, {
    "dataPoints" : [ {
      "timestamp" : "2021-06-24T14:09:27Z",
      "value" : null
    }, {
      "timestamp" : "2021-06-25T14:09:06Z",
      "value" : 0.0
    }, {
      "timestamp" : "2021-06-26T15:09:07Z",
      "value" : 0.0
    }, {
      "timestamp" : "2021-06-27T15:09:15Z",
      "value" : 0.0
    }, {
      "timestamp" : "2021-06-28T15:09:07Z",
      "value" : 0.0
    }, {
      "timestamp" : "2021-06-29T15:08:36Z",
      "value" : 0.0
    }, {
      "timestamp" : "2021-06-30T15:09:37Z",
      "value" : 0.0
    } ],
    "name" : "ASSERT_MSG",
    "units" : "SCALAR_PER_SECOND"
  }, {
    "dataPoints" : [ {
      "timestamp" : "2021-06-24T14:09:27Z",
      "value" : null
    }, {
      "timestamp" : "2021-06-25T14:09:06Z",
      "value" : 6.251466562219324E-4
    }, {
      "timestamp" : "2021-06-26T15:09:07Z",
      "value" : 5.888869521051352E-4
    }, {
      "timestamp" : "2021-06-27T15:09:15Z",
      "value" : 5.207855404103019E-4
    }, {
      "timestamp" : "2021-06-28T15:09:07Z",
      "value" : 8.565542985106778E-4
    }, {
      "timestamp" : "2021-06-29T15:08:36Z",
      "value" : 5.325977987918227E-4
    }, {
      "timestamp" : "2021-06-30T15:09:37Z",
      "value" : 7.055261772013657E-4
    } ],
    "name" : "ASSERT_USER",
    "units" : "SCALAR_PER_SECOND"
  }, {
    "dataPoints" : [ {
      "timestamp" : "2021-06-24T14:09:27Z",
      "value" : null
    }, {
      "timestamp" : "2021-06-25T14:09:06Z",
      "value" : 948374.981093655
    }, {
      "timestamp" : "2021-06-26T15:09:07Z",
      "value" : 67017.5130646237
    }, {
      "timestamp" : "2021-06-27T15:09:15Z",
      "value" : 73702.15011171023
    }, {
      "timestamp" : "2021-06-28T15:09:07Z",
      "value" : 47252.062469894
    }, {
      "timestamp" : "2021-06-29T15:08:36Z",
      "value" : 21302.84293526503
    }, {
      "timestamp" : "2021-06-30T15:09:37Z",
      "value" : 20382.24914412446
    } ],
    "name" : "CACHE_BYTES_READ_INTO",
    "units" : "BYTES_PER_SECOND"
  }, {
    "dataPoints" : [ {
      "timestamp" : "2021-06-24T14:09:27Z",
      "value" : null
    }, {
      "timestamp" : "2021-06-25T14:09:06Z",
      "value" : 7105962.693157727
    }, {
      "timestamp" : "2021-06-26T15:09:07Z",
      "value" : 1806894.6180354785
    }, {
      "timestamp" : "2021-06-27T15:09:15Z",
      "value" : 2017395.2718389998
    }, {
      "timestamp" : "2021-06-28T15:09:07Z",
      "value" : 1358894.8259895474
    }, {
      "timestamp" : "2021-06-29T15:08:36Z",
      "value" : 1033622.2959401899
    }, {
      "timestamp" : "2021-06-30T15:09:37Z",
      "value" : 1279024.964442348
    } ],
    "name" : "CACHE_BYTES_WRITTEN_FROM",
    "units" : "BYTES_PER_SECOND"
  }, {
    "dataPoints" : [ {
      "timestamp" : "2021-06-24T14:09:27Z",
      "value" : 1014709356
    }, {
      "timestamp" : "2021-06-25T14:09:06Z",
      "value" : 190900898
    }, {
      "timestamp" : "2021-06-26T15:09:07Z",
      "value" : 116589487
    }, {
      "timestamp" : "2021-06-27T15:09:15Z",
      "value" : 123291772
    }, {
      "timestamp" : "2021-06-28T15:09:07Z",
      "value" : 101414759
    }, {
      "timestamp" : "2021-06-29T15:08:36Z",
      "value" : 97632667
    }, {
      "timestamp" : "2021-06-30T15:09:37Z",
      "value" : 106635303
    } ],
    "name" : "CACHE_DIRTY_BYTES",
    "units" : "BYTES"
  }, {
    "dataPoints" : [ {
      "timestamp" : "2021-06-24T14:09:27Z",
      "value" : 23800374458
    }, {
      "timestamp" : "2021-06-25T14:09:06Z",
      "value" : 23872757462
    }, {
      "timestamp" : "2021-06-26T15:09:07Z",
      "value" : 23854175154
    }, {
      "timestamp" : "2021-06-27T15:09:15Z",
      "value" : 23804762993
    }, {
      "timestamp" : "2021-06-28T15:09:07Z",
      "value" : 23811271534
    }, {
      "timestamp" : "2021-06-29T15:08:36Z",
      "value" : 23558701562
    }, {
      "timestamp" : "2021-06-30T15:09:37Z",
      "value" : 23837457466
    } ],
    "name" : "CACHE_USED_BYTES",
    "units" : "BYTES"
  }, {
    "dataPoints" : [ {
      "timestamp" : "2021-06-24T14:09:27Z",
      "value" : 145
    }, {
      "timestamp" : "2021-06-25T14:09:06Z",
      "value" : 141
    }, {
      "timestamp" : "2021-06-26T15:09:07Z",
      "value" : 141
    }, {
      "timestamp" : "2021-06-27T15:09:15Z",
      "value" : 141
    }, {
      "timestamp" : "2021-06-28T15:09:07Z",
      "value" : 142
    }, {
      "timestamp" : "2021-06-29T15:08:36Z",
      "value" : 142
    }, {
      "timestamp" : "2021-06-30T15:09:37Z",
      "value" : 143
    } ],
    "name" : "CONNECTIONS",
    "units" : "SCALAR"
  }, {
    "dataPoints" : [ {
      "timestamp" : "2021-06-24T14:09:27Z",
      "value" : 0
    }, {
      "timestamp" : "2021-06-25T14:09:06Z",
      "value" : 0
    }, {
      "timestamp" : "2021-06-26T15:09:07Z",
      "value" : 0
    }, {
      "timestamp" : "2021-06-27T15:09:15Z",
      "value" : 0
    }, {
      "timestamp" : "2021-06-28T15:09:07Z",
      "value" : 0
    }, {
      "timestamp" : "2021-06-29T15:08:36Z",
      "value" : 0
    }, {
      "timestamp" : "2021-06-30T15:09:37Z",
      "value" : 0
    } ],
    "name" : "CURSORS_TOTAL_OPEN",
    "units" : "SCALAR"
  }, {
    "dataPoints" : [ {
      "timestamp" : "2021-06-24T14:09:27Z",
      "value" : null
    }, {
      "timestamp" : "2021-06-25T14:09:06Z",
      "value" : 0.0
    }, {
      "timestamp" : "2021-06-26T15:09:07Z",
      "value" : 0.0
    }, {
      "timestamp" : "2021-06-27T15:09:15Z",
      "value" : 0.0
    }, {
      "timestamp" : "2021-06-28T15:09:07Z",
      "value" : 0.0
    }, {
      "timestamp" : "2021-06-29T15:08:36Z",
      "value" : 0.0
    }, {
      "timestamp" : "2021-06-30T15:09:37Z",
      "value" : 0.0
    } ],
    "name" : "CURSORS_TOTAL_TIMED_OUT",
    "units" : "SCALAR_PER_SECOND"
  }, {
    "dataPoints" : [ {
      "timestamp" : "2021-06-24T14:09:27Z",
      "value" : 501687667780
    }, {
      "timestamp" : "2021-06-25T14:09:06Z",
      "value" : 501830435235
    }, {
      "timestamp" : "2021-06-26T15:09:07Z",
      "value" : 501875485294
    }, {
      "timestamp" : "2021-06-27T15:09:15Z",
      "value" : 501927320294
    }, {
      "timestamp" : "2021-06-28T15:09:07Z",
      "value" : 501977184046
    }, {
      "timestamp" : "2021-06-29T15:08:36Z",
      "value" : 502012238699
    }, {
      "timestamp" : "2021-06-30T15:09:37Z",
      "value" : 502056609643
    } ],
    "name" : "DB_STORAGE_TOTAL",
    "units" : "BYTES"
  }, {
    "dataPoints" : [ {
      "timestamp" : "2021-06-24T14:09:27Z",
      "value" : 1262073988577
    }, {
      "timestamp" : "2021-06-25T14:09:06Z",
      "value" : 1263244324407
    }, {
      "timestamp" : "2021-06-26T15:09:07Z",
      "value" : 1263280840499
    }, {
      "timestamp" : "2021-06-27T15:09:15Z",
      "value" : 1263512180226
    }, {
      "timestamp" : "2021-06-28T15:09:07Z",
      "value" : 1263762943150
    }, {
      "timestamp" : "2021-06-29T15:08:36Z",
      "value" : 1263862106731
    }, {
      "timestamp" : "2021-06-30T15:09:37Z",
      "value" : 1263905582456
    } ],
    "name" : "DB_DATA_SIZE_TOTAL",
    "units" : "BYTES"
  }, {
    "dataPoints" : [ {
      "timestamp" : "2021-06-24T14:09:27Z",
      "value" : 6275735962
    }, {
      "timestamp" : "2021-06-25T14:09:06Z",
      "value" : 6276578771
    }, {
      "timestamp" : "2021-06-26T15:09:07Z",
      "value" : 6277303548
    }, {
      "timestamp" : "2021-06-27T15:09:15Z",
      "value" : 6278053771
    }, {
      "timestamp" : "2021-06-28T15:09:07Z",
      "value" : 6278798973
    }, {
      "timestamp" : "2021-06-29T15:08:36Z",
      "value" : 6279771373
    }, {
      "timestamp" : "2021-06-30T15:09:37Z",
      "value" : 6281064270
    } ],
    "name" : "DB_INDEX_SIZE_TOTAL",
    "units" : "BYTES"
  }, {
    "dataPoints" : [ {
      "timestamp" : "2021-06-24T14:09:27Z",
      "value" : null
    }, {
      "timestamp" : "2021-06-25T14:09:06Z",
      "value" : 0.9323136234355719
    }, {
      "timestamp" : "2021-06-26T15:09:07Z",
      "value" : 0.9277747264297886
    }, {
      "timestamp" : "2021-06-27T15:09:15Z",
      "value" : 0.9286416296356321
    }, {
      "timestamp" : "2021-06-28T15:09:07Z",
      "value" : 0.9316764255016818
    }, {
      "timestamp" : "2021-06-29T15:08:36Z",
      "value" : 1.0080571163436967
    }, {
      "timestamp" : "2021-06-30T15:09:37Z",
      "value" : 1.006924646901208
    } ],
    "name" : "DOCUMENT_METRICS_RETURNED",
    "units" : "SCALAR_PER_SECOND"
  }, {
    "dataPoints" : [ {
      "timestamp" : "2021-06-24T14:09:27Z",
      "value" : null
    }, {
      "timestamp" : "2021-06-25T14:09:06Z",
      "value" : 0.0
    }, {
      "timestamp" : "2021-06-26T15:09:07Z",
      "value" : 0.0
    }, {
      "timestamp" : "2021-06-27T15:09:15Z",
      "value" : 0.0
    }, {
      "timestamp" : "2021-06-28T15:09:07Z",
      "value" : 0.0
    }, {
      "timestamp" : "2021-06-29T15:08:36Z",
      "value" : 0.0
    }, {
      "timestamp" : "2021-06-30T15:09:37Z",
      "value" : 0.0
    } ],
    "name" : "DOCUMENT_METRICS_INSERTED",
    "units" : "SCALAR_PER_SECOND"
  }, {
    "dataPoints" : [ {
      "timestamp" : "2021-06-24T14:09:27Z",
      "value" : null
    }, {
      "timestamp" : "2021-06-25T14:09:06Z",
      "value" : 0.07673096365627718
    }, {
      "timestamp" : "2021-06-26T15:09:07Z",
      "value" : 0.07637752658057924
    }, {
      "timestamp" : "2021-06-27T15:09:15Z",
      "value" : 0.07645131733223232
    }, {
      "timestamp" : "2021-06-28T15:09:07Z",
      "value" : 0.07671948500714558
    }, {
      "timestamp" : "2021-06-29T15:08:36Z",
      "value" : 0.08299263090738664
    }, {
      "timestamp" : "2021-06-30T15:09:37Z",
      "value" : 0.08290510882261294
    } ],
    "name" : "DOCUMENT_METRICS_UPDATED",
    "units" : "SCALAR_PER_SECOND"
  }, {
    "dataPoints" : [ {
      "timestamp" : "2021-06-24T14:09:27Z",
      "value" : null
    }, {
      "timestamp" : "2021-06-25T14:09:06Z",
      "value" : 0.0
    }, {
      "timestamp" : "2021-06-26T15:09:07Z",
      "value" : 0.0
    }, {
      "timestamp" : "2021-06-27T15:09:15Z",
      "value" : 0.0
    }, {
      "timestamp" : "2021-06-28T15:09:07Z",
      "value" : 0.0
    }, {
      "timestamp" : "2021-06-29T15:08:36Z",
      "value" : 0.0
    }, {
      "timestamp" : "2021-06-30T15:09:37Z",
      "value" : 0.0
    } ],
    "name" : "DOCUMENT_METRICS_DELETED",
    "units" : "SCALAR_PER_SECOND"
  }, {
    "dataPoints" : [ {
      "timestamp" : "2021-06-24T14:09:27Z",
      "value" : null
    }, {
      "timestamp" : "2021-06-25T14:09:06Z",
      "value" : 2.431125885307515E-4
    }, {
      "timestamp" : "2021-06-26T15:09:07Z",
      "value" : 0.0
    }, {
      "timestamp" : "2021-06-27T15:09:15Z",
      "value" : 0.0
    }, {
      "timestamp" : "2021-06-28T15:09:07Z",
      "value" : 1.7362587131973197E-4
    }, {
      "timestamp" : "2021-06-29T15:08:36Z",
      "value" : 0.0
    }, {
      "timestamp" : "2021-06-30T15:09:37Z",
      "value" : 0.0
    } ],
    "name" : "EXTRA_INFO_PAGE_FAULTS",
    "units" : "SCALAR_PER_SECOND"
  }, {
    "dataPoints" : [ {
      "timestamp" : "2021-06-24T14:09:27Z",
      "value" : 2
    }, {
      "timestamp" : "2021-06-25T14:09:06Z",
      "value" : 2
    }, {
      "timestamp" : "2021-06-26T15:09:07Z",
      "value" : 0
    }, {
      "timestamp" : "2021-06-27T15:09:15Z",
      "value" : 1
    }, {
      "timestamp" : "2021-06-28T15:09:07Z",
      "value" : 0
    }, {
      "timestamp" : "2021-06-29T15:08:36Z",
      "value" : 1
    }, {
      "timestamp" : "2021-06-30T15:09:37Z",
      "value" : 1
    } ],
    "name" : "GLOBAL_LOCK_CURRENT_QUEUE_TOTAL",
    "units" : "SCALAR"
  }, {
    "dataPoints" : [ {
      "timestamp" : "2021-06-24T14:09:27Z",
      "value" : 0
    }, {
      "timestamp" : "2021-06-25T14:09:06Z",
      "value" : 0
    }, {
      "timestamp" : "2021-06-26T15:09:07Z",
      "value" : 0
    }, {
      "timestamp" : "2021-06-27T15:09:15Z",
      "value" : 0
    }, {
      "timestamp" : "2021-06-28T15:09:07Z",
      "value" : 0
    }, {
      "timestamp" : "2021-06-29T15:08:36Z",
      "value" : 0
    }, {
      "timestamp" : "2021-06-30T15:09:37Z",
      "value" : 0
    } ],
    "name" : "GLOBAL_LOCK_CURRENT_QUEUE_READERS",
    "units" : "SCALAR"
  }, {
    "dataPoints" : [ {
      "timestamp" : "2021-06-24T14:09:27Z",
      "value" : 2
    }, {
      "timestamp" : "2021-06-25T14:09:06Z",
      "value" : 2
    }, {
      "timestamp" : "2021-06-26T15:09:07Z",
      "value" : 0
    }, {
      "timestamp" : "2021-06-27T15:09:15Z",
      "value" : 1
    }, {
      "timestamp" : "2021-06-28T15:09:07Z",
      "value" : 0
    }, {
      "timestamp" : "2021-06-29T15:08:36Z",
      "value" : 1
    }, {
      "timestamp" : "2021-06-30T15:09:37Z",
      "value" : 1
    } ],
    "name" : "GLOBAL_LOCK_CURRENT_QUEUE_WRITERS",
    "units" : "SCALAR"
  }, {
    "dataPoints" : [ {
      "timestamp" : "2021-06-24T14:09:27Z",
      "value" : 24252
    }, {
      "timestamp" : "2021-06-25T14:09:06Z",
      "value" : 24107
    }, {
      "timestamp" : "2021-06-26T15:09:07Z",
      "value" : 24606
    }, {
      "timestamp" : "2021-06-27T15:09:15Z",
      "value" : 25451
    }, {
      "timestamp" : "2021-06-28T15:09:07Z",
      "value" : 25376
    }, {
      "timestamp" : "2021-06-29T15:08:36Z",
      "value" : 25421
    }, {
      "timestamp" : "2021-06-30T15:09:37Z",
      "value" : 25987
    } ],
    "name" : "MEMORY_RESIDENT",
    "units" : "MEGABYTES"
  }, {
    "dataPoints" : [ {
      "timestamp" : "2021-06-24T14:09:27Z",
      "value" : 26446
    }, {
      "timestamp" : "2021-06-25T14:09:06Z",
      "value" : 26972
    }, {
      "timestamp" : "2021-06-26T15:09:07Z",
      "value" : 27054
    }, {
      "timestamp" : "2021-06-27T15:09:15Z",
      "value" : 28158
    }, {
      "timestamp" : "2021-06-28T15:09:07Z",
      "value" : 28754
    }, {
      "timestamp" : "2021-06-29T15:08:36Z",
      "value" : 28829
    }, {
      "timestamp" : "2021-06-30T15:09:37Z",
      "value" : 28839
    } ],
    "name" : "MEMORY_VIRTUAL",
    "units" : "MEGABYTES"
  }, {
    "dataPoints" : [ {
      "timestamp" : "2021-06-24T14:09:27Z",
      "value" : null
    }, {
      "timestamp" : "2021-06-25T14:09:06Z",
      "value" : null
    }, {
      "timestamp" : "2021-06-26T15:09:07Z",
      "value" : null
    }, {
      "timestamp" : "2021-06-27T15:09:15Z",
      "value" : null
    }, {
      "timestamp" : "2021-06-28T15:09:07Z",
      "value" : null
    }, {
      "timestamp" : "2021-06-29T15:08:36Z",
      "value" : null
    }, {
      "timestamp" : "2021-06-30T15:09:37Z",
      "value" : null
    } ],
    "name" : "MEMORY_MAPPED",
    "units" : "MEGABYTES"
  }, {
    "dataPoints" : [ {
      "timestamp" : "2021-06-24T14:09:27Z",
      "value" : null
    }, {
      "timestamp" : "2021-06-25T14:09:06Z",
      "value" : 3292.0523797417245
    }, {
      "timestamp" : "2021-06-26T15:09:07Z",
      "value" : 3268.6666052742758
    }, {
      "timestamp" : "2021-06-27T15:09:15Z",
      "value" : 3269.31210213359
    }, {
      "timestamp" : "2021-06-28T15:09:07Z",
      "value" : 3300.448851815007
    }, {
      "timestamp" : "2021-06-29T15:08:36Z",
      "value" : 3434.4869278154224
    }, {
      "timestamp" : "2021-06-30T15:09:37Z",
      "value" : 3432.9571032103718
    } ],
    "name" : "NETWORK_BYTES_IN",
    "units" : "BYTES_PER_SECOND"
  }, {
    "dataPoints" : [ {
      "timestamp" : "2021-06-24T14:09:27Z",
      "value" : null
    }, {
      "timestamp" : "2021-06-25T14:09:06Z",
      "value" : 24087.910982265043
    }, {
      "timestamp" : "2021-06-26T15:09:07Z",
      "value" : 23909.97355164254
    }, {
      "timestamp" : "2021-06-27T15:09:15Z",
      "value" : 23916.92275138315
    }, {
      "timestamp" : "2021-06-28T15:09:07Z",
      "value" : 24104.66562232634
    }, {
      "timestamp" : "2021-06-29T15:08:36Z",
      "value" : 24951.807969223813
    }, {
      "timestamp" : "2021-06-30T15:09:37Z",
      "value" : 24929.119925605617
    } ],
    "name" : "NETWORK_BYTES_OUT",
    "units" : "BYTES_PER_SECOND"
  }, {
    "dataPoints" : [ {
      "timestamp" : "2021-06-24T14:09:27Z",
      "value" : null
    }, {
      "timestamp" : "2021-06-25T14:09:06Z",
      "value" : 17.640411498850348
    }, {
      "timestamp" : "2021-06-26T15:09:07Z",
      "value" : 17.51267573608869
    }, {
      "timestamp" : "2021-06-27T15:09:15Z",
      "value" : 17.51735075145708
    }, {
      "timestamp" : "2021-06-28T15:09:07Z",
      "value" : 17.621636931982238
    }, {
      "timestamp" : "2021-06-29T15:08:36Z",
      "value" : 18.085469766425994
    }, {
      "timestamp" : "2021-06-30T15:09:37Z",
      "value" : 18.077350258343444
    } ],
    "name" : "NETWORK_NUM_REQUESTS",
    "units" : "SCALAR_PER_SECOND"
  }, {
    "dataPoints" : [ {
      "timestamp" : "2021-06-24T14:09:27Z",
      "value" : null
    }, {
      "timestamp" : "2021-06-25T14:09:06Z",
      "value" : 17.405321625741113
    }, {
      "timestamp" : "2021-06-26T15:09:07Z",
      "value" : 17.278965393624926
    }, {
      "timestamp" : "2021-06-27T15:09:15Z",
      "value" : 17.28343703272879
    }, {
      "timestamp" : "2021-06-28T15:09:07Z",
      "value" : 17.38672112808664
    }, {
      "timestamp" : "2021-06-29T15:08:36Z",
      "value" : 17.83123536499402
    }, {
      "timestamp" : "2021-06-30T15:09:37Z",
      "value" : 17.823464928577096
    } ],
    "name" : "OPCOUNTER_CMD",
    "units" : "SCALAR_PER_SECOND"
  }, {
    "dataPoints" : [ {
      "timestamp" : "2021-06-24T14:09:27Z",
      "value" : null
    }, {
      "timestamp" : "2021-06-25T14:09:06Z",
      "value" : 0.16500398687280005
    }, {
      "timestamp" : "2021-06-26T15:09:07Z",
      "value" : 0.16399946062399617
    }, {
      "timestamp" : "2021-06-27T15:09:15Z",
      "value" : 0.1641284563133089
    }, {
      "timestamp" : "2021-06-28T15:09:07Z",
      "value" : 0.1644815754302261
    }, {
      "timestamp" : "2021-06-29T15:08:36Z",
      "value" : 0.177899243009486
    }, {
      "timestamp" : "2021-06-30T15:09:37Z",
      "value" : 0.17764223861697992
    } ],
    "name" : "OPCOUNTER_QUERY",
    "units" : "SCALAR_PER_SECOND"
  }, {
    "dataPoints" : [ {
      "timestamp" : "2021-06-24T14:09:27Z",
      "value" : null
    }, {
      "timestamp" : "2021-06-25T14:09:06Z",
      "value" : 0.07673096365627718
    }, {
      "timestamp" : "2021-06-26T15:09:07Z",
      "value" : 0.07637752658057924
    }, {
      "timestamp" : "2021-06-27T15:09:15Z",
      "value" : 0.07645131733223232
    }, {
      "timestamp" : "2021-06-28T15:09:07Z",
      "value" : 0.07671948500714558
    }, {
      "timestamp" : "2021-06-29T15:08:36Z",
      "value" : 0.08299263090738664
    }, {
      "timestamp" : "2021-06-30T15:09:37Z",
      "value" : 0.08290510882261294
    } ],
    "name" : "OPCOUNTER_UPDATE",
    "units" : "SCALAR_PER_SECOND"
  }, {
    "dataPoints" : [ {
      "timestamp" : "2021-06-24T14:09:27Z",
      "value" : null
    }, {
      "timestamp" : "2021-06-25T14:09:06Z",
      "value" : 0.0
    }, {
      "timestamp" : "2021-06-26T15:09:07Z",
      "value" : 0.0
    }, {
      "timestamp" : "2021-06-27T15:09:15Z",
      "value" : 0.0
    }, {
      "timestamp" : "2021-06-28T15:09:07Z",
      "value" : 0.0
    }, {
      "timestamp" : "2021-06-29T15:08:36Z",
      "value" : 0.0
    }, {
      "timestamp" : "2021-06-30T15:09:37Z",
      "value" : 0.0
    } ],
    "name" : "OPCOUNTER_DELETE",
    "units" : "SCALAR_PER_SECOND"
  }, {
    "dataPoints" : [ {
      "timestamp" : "2021-06-24T14:09:27Z",
      "value" : null
    }, {
      "timestamp" : "2021-06-25T14:09:06Z",
      "value" : 0.0
    }, {
      "timestamp" : "2021-06-26T15:09:07Z",
      "value" : 0.0
    }, {
      "timestamp" : "2021-06-27T15:09:15Z",
      "value" : 0.0
    }, {
      "timestamp" : "2021-06-28T15:09:07Z",
      "value" : 0.0
    }, {
      "timestamp" : "2021-06-29T15:08:36Z",
      "value" : 0.0
    }, {
      "timestamp" : "2021-06-30T15:09:37Z",
      "value" : 0.0
    } ],
    "name" : "OPCOUNTER_GETMORE",
    "units" : "SCALAR_PER_SECOND"
  }, {
    "dataPoints" : [ {
      "timestamp" : "2021-06-24T14:09:27Z",
      "value" : null
    }, {
      "timestamp" : "2021-06-25T14:09:06Z",
      "value" : 0.0
    }, {
      "timestamp" : "2021-06-26T15:09:07Z",
      "value" : 0.0
    }, {
      "timestamp" : "2021-06-27T15:09:15Z",
      "value" : 0.0
    }, {
      "timestamp" : "2021-06-28T15:09:07Z",
      "value" : 0.0
    }, {
      "timestamp" : "2021-06-29T15:08:36Z",
      "value" : 0.0
    }, {
      "timestamp" : "2021-06-30T15:09:37Z",
      "value" : 0.0
    } ],
    "name" : "OPCOUNTER_INSERT",
    "units" : "SCALAR_PER_SECOND"
  }, {
    "dataPoints" : [ {
      "timestamp" : "2021-06-24T14:09:27Z",
      "value" : null
    }, {
      "timestamp" : "2021-06-25T14:09:06Z",
      "value" : 0.0
    }, {
      "timestamp" : "2021-06-26T15:09:07Z",
      "value" : 0.0
    }, {
      "timestamp" : "2021-06-27T15:09:15Z",
      "value" : 0.0
    }, {
      "timestamp" : "2021-06-28T15:09:07Z",
      "value" : null
    }, {
      "timestamp" : "2021-06-29T15:08:36Z",
      "value" : 0.0
    }, {
      "timestamp" : "2021-06-30T15:09:37Z",
      "value" : 0.0
    } ],
    "name" : "OPCOUNTER_REPL_CMD",
    "units" : "SCALAR_PER_SECOND"
  }, {
    "dataPoints" : [ {
      "timestamp" : "2021-06-24T14:09:27Z",
      "value" : null
    }, {
      "timestamp" : "2021-06-25T14:09:06Z",
      "value" : 297.4508221147389
    }, {
      "timestamp" : "2021-06-26T15:09:07Z",
      "value" : 161.28715843334558
    }, {
      "timestamp" : "2021-06-27T15:09:15Z",
      "value" : 160.71897753735075
    }, {
      "timestamp" : "2021-06-28T15:09:07Z",
      "value" : 164.56741606100658
    }, {
      "timestamp" : "2021-06-29T15:08:36Z",
      "value" : 164.54905395926605
    }, {
      "timestamp" : "2021-06-30T15:09:37Z",
      "value" : 167.16052535237185
    } ],
    "name" : "OPCOUNTER_REPL_UPDATE",
    "units" : "SCALAR_PER_SECOND"
  }, {
    "dataPoints" : [ {
      "timestamp" : "2021-06-24T14:09:27Z",
      "value" : null
    }, {
      "timestamp" : "2021-06-25T14:09:06Z",
      "value" : 0.0739178037032785
    }, {
      "timestamp" : "2021-06-26T15:09:07Z",
      "value" : 0.06062202284312487
    }, {
      "timestamp" : "2021-06-27T15:09:15Z",
      "value" : 0.05928854052271059
    }, {
      "timestamp" : "2021-06-28T15:09:07Z",
      "value" : 0.06429944767874074
    }, {
      "timestamp" : "2021-06-29T15:08:36Z",
      "value" : 0.06325177771303755
    }, {
      "timestamp" : "2021-06-30T15:09:37Z",
      "value" : 0.06335856391326362
    } ],
    "name" : "OPCOUNTER_REPL_DELETE",
    "units" : "SCALAR_PER_SECOND"
  }, {
    "dataPoints" : [ {
      "timestamp" : "2021-06-24T14:09:27Z",
      "value" : null
    }, {
      "timestamp" : "2021-06-25T14:09:06Z",
      "value" : 0.371047694047577
    }, {
      "timestamp" : "2021-06-26T15:09:07Z",
      "value" : 0.29687680138296435
    }, {
      "timestamp" : "2021-06-27T15:09:15Z",
      "value" : 0.2964658486375712
    }, {
      "timestamp" : "2021-06-28T15:09:07Z",
      "value" : 0.44178524204401404
    }, {
      "timestamp" : "2021-06-29T15:08:36Z",
      "value" : 0.32048493631647074
    }, {
      "timestamp" : "2021-06-30T15:09:37Z",
      "value" : 0.309436841718776
    } ],
    "name" : "OPCOUNTER_REPL_INSERT",
    "units" : "SCALAR_PER_SECOND"
  }, {
    "dataPoints" : [ {
      "timestamp" : "2021-06-24T14:09:27Z",
      "value" : null
    }, {
      "timestamp" : "2021-06-25T14:09:06Z",
      "value" : 0.0
    }, {
      "timestamp" : "2021-06-26T15:09:07Z",
      "value" : 0.0
    }, {
      "timestamp" : "2021-06-27T15:09:15Z",
      "value" : 0.0
    }, {
      "timestamp" : "2021-06-28T15:09:07Z",
      "value" : 0.0
    }, {
      "timestamp" : "2021-06-29T15:08:36Z",
      "value" : 0.0
    }, {
      "timestamp" : "2021-06-30T15:09:37Z",
      "value" : 0.0
    } ],
    "name" : "OPERATIONS_SCAN_AND_ORDER",
    "units" : "SCALAR_PER_SECOND"
  }, {
    "dataPoints" : [ {
      "timestamp" : "2021-06-24T14:09:27Z",
      "value" : null
    }, {
      "timestamp" : "2021-06-25T14:09:06Z",
      "value" : null
    }, {
      "timestamp" : "2021-06-26T15:09:07Z",
      "value" : null
    }, {
      "timestamp" : "2021-06-27T15:09:15Z",
      "value" : null
    }, {
      "timestamp" : "2021-06-28T15:09:07Z",
      "value" : 0.09098103435143576
    }, {
      "timestamp" : "2021-06-29T15:08:36Z",
      "value" : 0.09396225127913586
    }, {
      "timestamp" : "2021-06-30T15:09:37Z",
      "value" : 0.0925952506596306
    } ],
    "name" : "OP_EXECUTION_TIME_READS",
    "units" : "MILLISECONDS"
  }, {
    "dataPoints" : [ {
      "timestamp" : "2021-06-24T14:09:27Z",
      "value" : null
    }, {
      "timestamp" : "2021-06-25T14:09:06Z",
      "value" : null
    }, {
      "timestamp" : "2021-06-26T15:09:07Z",
      "value" : null
    }, {
      "timestamp" : "2021-06-27T15:09:15Z",
      "value" : null
    }, {
      "timestamp" : "2021-06-28T15:09:07Z",
      "value" : 0.5491816256555062
    }, {
      "timestamp" : "2021-06-29T15:08:36Z",
      "value" : 0.18237571385632703
    }, {
      "timestamp" : "2021-06-30T15:09:37Z",
      "value" : 0.1649380580357143
    } ],
    "name" : "OP_EXECUTION_TIME_WRITES",
    "units" : "MILLISECONDS"
  }, {
    "dataPoints" : [ {
      "timestamp" : "2021-06-24T14:09:27Z",
      "value" : null
    }, {
      "timestamp" : "2021-06-25T14:09:06Z",
      "value" : null
    }, {
      "timestamp" : "2021-06-26T15:09:07Z",
      "value" : null
    }, {
      "timestamp" : "2021-06-27T15:09:15Z",
      "value" : null
    }, {
      "timestamp" : "2021-06-28T15:09:07Z",
      "value" : 0.10159363727196394
    }, {
      "timestamp" : "2021-06-29T15:08:36Z",
      "value" : 0.05676056294842706
    }, {
      "timestamp" : "2021-06-30T15:09:37Z",
      "value" : 0.056914918953690045
    } ],
    "name" : "OP_EXECUTION_TIME_COMMANDS",
    "units" : "MILLISECONDS"
  }, {
    "dataPoints" : [ {
      "timestamp" : "2021-06-24T14:09:27Z",
      "value" : 15961
    }, {
      "timestamp" : "2021-06-25T14:09:06Z",
      "value" : 44067
    }, {
      "timestamp" : "2021-06-26T15:09:07Z",
      "value" : 128534
    }, {
      "timestamp" : "2021-06-27T15:09:15Z",
      "value" : 211395
    }, {
      "timestamp" : "2021-06-28T15:09:07Z",
      "value" : 294511
    }, {
      "timestamp" : "2021-06-29T15:08:36Z",
      "value" : 373221
    }, {
      "timestamp" : "2021-06-30T15:09:37Z",
      "value" : 418817
    } ],
    "name" : "OPLOG_MASTER_TIME",
    "units" : "SECONDS"
  }, {
    "dataPoints" : [ {
      "timestamp" : "2021-06-24T14:09:27Z",
      "value" : 74.355768
    }, {
      "timestamp" : "2021-06-25T14:09:06Z",
      "value" : 36.4376124
    }, {
      "timestamp" : "2021-06-26T15:09:07Z",
      "value" : 9.282880800000001
    }, {
      "timestamp" : "2021-06-27T15:09:15Z",
      "value" : 5.5240272
    }, {
      "timestamp" : "2021-06-28T15:09:07Z",
      "value" : 3.9434615999999996
    }, {
      "timestamp" : "2021-06-29T15:08:36Z",
      "value" : 3.0984336
    }, {
      "timestamp" : "2021-06-30T15:09:37Z",
      "value" : 2.75679
    } ],
    "name" : "OPLOG_RATE_GB_PER_HOUR",
    "units" : "GIGABYTES_PER_HOUR"
  }, {
    "dataPoints" : [ {
      "timestamp" : "2021-06-24T14:09:27Z",
      "value" : null
    }, {
      "timestamp" : "2021-06-25T14:09:06Z",
      "value" : 0.0
    }, {
      "timestamp" : "2021-06-26T15:09:07Z",
      "value" : 0.0
    }, {
      "timestamp" : "2021-06-27T15:09:15Z",
      "value" : 0.0
    }, {
      "timestamp" : "2021-06-28T15:09:07Z",
      "value" : 0.0
    }, {
      "timestamp" : "2021-06-29T15:08:36Z",
      "value" : 0.0
    }, {
      "timestamp" : "2021-06-30T15:09:37Z",
      "value" : 0.0
    } ],
    "name" : "QUERY_EXECUTOR_SCANNED",
    "units" : "SCALAR_PER_SECOND"
  }, {
    "dataPoints" : [ {
      "timestamp" : "2021-06-24T14:09:27Z",
      "value" : null
    }, {
      "timestamp" : "2021-06-25T14:09:06Z",
      "value" : 1.0090445870918492
    }, {
      "timestamp" : "2021-06-26T15:09:07Z",
      "value" : 1.004152253010368
    }, {
      "timestamp" : "2021-06-27T15:09:15Z",
      "value" : 1.0050929469678644
    }, {
      "timestamp" : "2021-06-28T15:09:07Z",
      "value" : 1.0083959105088274
    }, {
      "timestamp" : "2021-06-29T15:08:36Z",
      "value" : 1.0910497472510834
    }, {
      "timestamp" : "2021-06-30T15:09:37Z",
      "value" : 1.089829755723821
    } ],
    "name" : "QUERY_EXECUTOR_SCANNED_OBJECTS",
    "units" : "SCALAR_PER_SECOND"
  }, {
    "dataPoints" : [ {
      "timestamp" : "2021-06-24T14:09:27Z",
      "value" : null
    }, {
      "timestamp" : "2021-06-25T14:09:06Z",
      "value" : 0.0
    }, {
      "timestamp" : "2021-06-26T15:09:07Z",
      "value" : 0.0
    }, {
      "timestamp" : "2021-06-27T15:09:15Z",
      "value" : 0.0
    }, {
      "timestamp" : "2021-06-28T15:09:07Z",
      "value" : 0.0
    }, {
      "timestamp" : "2021-06-29T15:08:36Z",
      "value" : 0.0
    }, {
      "timestamp" : "2021-06-30T15:09:37Z",
      "value" : 0.0
    } ],
    "name" : "QUERY_TARGETING_SCANNED_PER_RETURNED",
    "units" : "SCALAR"
  }, {
    "dataPoints" : [ {
      "timestamp" : "2021-06-24T14:09:27Z",
      "value" : null
    }, {
      "timestamp" : "2021-06-25T14:09:06Z",
      "value" : 1.082301665155899
    }, {
      "timestamp" : "2021-06-26T15:09:07Z",
      "value" : 1.0823233532934131
    }, {
      "timestamp" : "2021-06-27T15:09:15Z",
      "value" : 1.082325963959024
    }, {
      "timestamp" : "2021-06-28T15:09:07Z",
      "value" : 1.082345632997888
    }, {
      "timestamp" : "2021-06-29T15:08:36Z",
      "value" : 1.0823292942054787
    }, {
      "timestamp" : "2021-06-30T15:09:37Z",
      "value" : 1.0823349682399293
    } ],
    "name" : "QUERY_TARGETING_SCANNED_OBJECTS_PER_RETURNED",
    "units" : "SCALAR"
  }, {
    "dataPoints" : [ {
      "timestamp" : "2021-06-24T14:09:27Z",
      "value" : 127
    }, {
      "timestamp" : "2021-06-25T14:09:06Z",
      "value" : 127
    }, {
      "timestamp" : "2021-06-26T15:09:07Z",
      "value" : 127
    }, {
      "timestamp" : "2021-06-27T15:09:15Z",
      "value" : 127
    }, {
      "timestamp" : "2021-06-28T15:09:07Z",
      "value" : 127
    }, {
      "timestamp" : "2021-06-29T15:08:36Z",
      "value" : 127
    }, {
      "timestamp" : "2021-06-30T15:09:37Z",
      "value" : 127
    } ],
    "name" : "TICKETS_AVAILABLE_READS",
    "units" : "SCALAR"
  }, {
    "dataPoints" : [ {
      "timestamp" : "2021-06-24T14:09:27Z",
      "value" : 128
    }, {
      "timestamp" : "2021-06-25T14:09:06Z",
      "value" : 128
    }, {
      "timestamp" : "2021-06-26T15:09:07Z",
      "value" : 128
    }, {
      "timestamp" : "2021-06-27T15:09:15Z",
      "value" : 128
    }, {
      "timestamp" : "2021-06-28T15:09:07Z",
      "value" : 128
    }, {
      "timestamp" : "2021-06-29T15:08:36Z",
      "value" : 128
    }, {
      "timestamp" : "2021-06-30T15:09:37Z",
      "value" : 128
    } ],
    "name" : "TICKETS_AVAILABLE_WRITE",
    "units" : "SCALAR"
  }, {
    "dataPoints" : [ {
      "timestamp" : "2021-06-24T14:09:19Z",
      "value" : null
    }, {
      "timestamp" : "2021-06-25T14:09:19Z",
      "value" : 29.42920236270191
    }, {
      "timestamp" : "2021-06-26T15:09:20Z",
      "value" : 23.22076188173553
    }, {
      "timestamp" : "2021-06-27T15:09:20Z",
      "value" : 22.874310061624907
    }, {
      "timestamp" : "2021-06-28T15:09:20Z",
      "value" : 22.724724335447906
    }, {
      "timestamp" : "2021-06-29T15:09:22Z",
      "value" : 22.74474083813263
    }, {
      "timestamp" : "2021-06-30T15:09:22Z",
      "value" : 22.67953983214271
    } ],
    "name" : "PROCESS_CPU_USER",
    "units" : "PERCENT"
  }, {
    "dataPoints" : [ {
      "timestamp" : "2021-06-24T14:09:19Z",
      "value" : null
    }, {
      "timestamp" : "2021-06-25T14:09:19Z",
      "value" : 8.074329890422174
    }, {
      "timestamp" : "2021-06-26T15:09:20Z",
      "value" : 7.346384990631144
    }, {
      "timestamp" : "2021-06-27T15:09:20Z",
      "value" : 7.294246434754402
    }, {
      "timestamp" : "2021-06-28T15:09:20Z",
      "value" : 7.129732188429901
    }, {
      "timestamp" : "2021-06-29T15:09:22Z",
      "value" : 7.152448565767299
    }, {
      "timestamp" : "2021-06-30T15:09:22Z",
      "value" : 7.027059096485987
    } ],
    "name" : "PROCESS_CPU_KERNEL",
    "units" : "PERCENT"
  }, {
    "dataPoints" : [ {
      "timestamp" : "2021-06-24T14:09:19Z",
      "value" : null
    }, {
      "timestamp" : "2021-06-25T14:09:19Z",
      "value" : 0.0
    }, {
      "timestamp" : "2021-06-26T15:09:20Z",
      "value" : 0.0
    }, {
      "timestamp" : "2021-06-27T15:09:20Z",
      "value" : 0.0
    }, {
      "timestamp" : "2021-06-28T15:09:20Z",
      "value" : 0.0
    }, {
      "timestamp" : "2021-06-29T15:09:22Z",
      "value" : 0.0
    }, {
      "timestamp" : "2021-06-30T15:09:22Z",
      "value" : 0.0
    } ],
    "name" : "PROCESS_CPU_CHILDREN_USER",
    "units" : "PERCENT"
  }, {
    "dataPoints" : [ {
      "timestamp" : "2021-06-24T14:09:19Z",
      "value" : null
    }, {
      "timestamp" : "2021-06-25T14:09:19Z",
      "value" : 0.0
    }, {
      "timestamp" : "2021-06-26T15:09:20Z",
      "value" : 0.0
    }, {
      "timestamp" : "2021-06-27T15:09:20Z",
      "value" : 0.0
    }, {
      "timestamp" : "2021-06-28T15:09:20Z",
      "value" : 0.0
    }, {
      "timestamp" : "2021-06-29T15:09:22Z",
      "value" : 0.0
    }, {
      "timestamp" : "2021-06-30T15:09:22Z",
      "value" : 0.0
    } ],
    "name" : "PROCESS_CPU_CHILDREN_KERNEL",
    "units" : "PERCENT"
  }, {
    "dataPoints" : [ {
      "timestamp" : "2021-06-24T14:09:19Z",
      "value" : null
    }, {
      "timestamp" : "2021-06-25T14:09:19Z",
      "value" : 1.8393251476688695
    }, {
      "timestamp" : "2021-06-26T15:09:20Z",
      "value" : 1.4512976176084706
    }, {
      "timestamp" : "2021-06-27T15:09:20Z",
      "value" : 1.4296443788515567
    }, {
      "timestamp" : "2021-06-28T15:09:20Z",
      "value" : 1.4202952709654941
    }, {
      "timestamp" : "2021-06-29T15:09:22Z",
      "value" : 1.4215463023832893
    }, {
      "timestamp" : "2021-06-30T15:09:22Z",
      "value" : 1.4174712395089193
    } ],
    "name" : "PROCESS_NORMALIZED_CPU_USER",
    "units" : "PERCENT"
  }, {
    "dataPoints" : [ {
      "timestamp" : "2021-06-24T14:09:19Z",
      "value" : null
    }, {
      "timestamp" : "2021-06-25T14:09:19Z",
      "value" : 0.5046456181513859
    }, {
      "timestamp" : "2021-06-26T15:09:20Z",
      "value" : 0.4591490619144465
    }, {
      "timestamp" : "2021-06-27T15:09:20Z",
      "value" : 0.4558904021721501
    }, {
      "timestamp" : "2021-06-28T15:09:20Z",
      "value" : 0.4456082617768688
    }, {
      "timestamp" : "2021-06-29T15:09:22Z",
      "value" : 0.4470280353604562
    }, {
      "timestamp" : "2021-06-30T15:09:22Z",
      "value" : 0.43919119353037417
    } ],
    "name" : "PROCESS_NORMALIZED_CPU_KERNEL",
    "units" : "PERCENT"
  }, {
    "dataPoints" : [ {
      "timestamp" : "2021-06-24T14:09:19Z",
      "value" : null
    }, {
      "timestamp" : "2021-06-25T14:09:19Z",
      "value" : 0.0
    }, {
      "timestamp" : "2021-06-26T15:09:20Z",
      "value" : 0.0
    }, {
      "timestamp" : "2021-06-27T15:09:20Z",
      "value" : 0.0
    }, {
      "timestamp" : "2021-06-28T15:09:20Z",
      "value" : 0.0
    }, {
      "timestamp" : "2021-06-29T15:09:22Z",
      "value" : 0.0
    }, {
      "timestamp" : "2021-06-30T15:09:22Z",
      "value" : 0.0
    } ],
    "name" : "PROCESS_NORMALIZED_CPU_CHILDREN_USER",
    "units" : "PERCENT"
  }, {
    "dataPoints" : [ {
      "timestamp" : "2021-06-24T14:09:19Z",
      "value" : null
    }, {
      "timestamp" : "2021-06-25T14:09:19Z",
      "value" : 0.0
    }, {
      "timestamp" : "2021-06-26T15:09:20Z",
      "value" : 0.0
    }, {
      "timestamp" : "2021-06-27T15:09:20Z",
      "value" : 0.0
    }, {
      "timestamp" : "2021-06-28T15:09:20Z",
      "value" : 0.0
    }, {
      "timestamp" : "2021-06-29T15:09:22Z",
      "value" : 0.0
    }, {
      "timestamp" : "2021-06-30T15:09:22Z",
      "value" : 0.0
    } ],
    "name" : "PROCESS_NORMALIZED_CPU_CHILDREN_KERNEL",
    "units" : "PERCENT"
  }, {
    "dataPoints" : [ ],
    "name" : "FTS_PROCESS_RESIDENT_MEMORY",
    "units" : "BYTES"
  }, {
    "dataPoints" : [ ],
    "name" : "FTS_PROCESS_VIRTUAL_MEMORY",
    "units" : "BYTES"
  }, {
    "dataPoints" : [ ],
    "name" : "FTS_PROCESS_SHARED_MEMORY",
    "units" : "BYTES"
  }, {
    "dataPoints" : [ ],
    "name" : "FTS_DISK_USAGE",
    "units" : "BYTES"
  }, {
    "dataPoints" : [ ],
    "name" : "FTS_PROCESS_CPU_USER",
    "units" : "PERCENT"
  }, {
    "dataPoints" : [ ],
    "name" : "FTS_PROCESS_CPU_KERNEL",
    "units" : "PERCENT"
  }, {
    "dataPoints" : [ ],
    "name" : "FTS_PROCESS_NORMALIZED_CPU_USER",
    "units" : "PERCENT"
  }, {
    "dataPoints" : [ ],
    "name" : "FTS_PROCESS_NORMALIZED_CPU_KERNEL",
    "units" : "PERCENT"
  }, {
    "dataPoints" : [ {
      "timestamp" : "2021-06-24T14:09:19Z",
      "value" : null
    }, {
      "timestamp" : "2021-06-25T14:09:19Z",
      "value" : 22.15370959448019
    }, {
      "timestamp" : "2021-06-26T15:09:19Z",
      "value" : 16.813564308834046
    }, {
      "timestamp" : "2021-06-27T15:09:20Z",
      "value" : 16.83825288835244
    }, {
      "timestamp" : "2021-06-28T15:09:20Z",
      "value" : 16.72446835974345
    }, {
      "timestamp" : "2021-06-29T15:09:22Z",
      "value" : 16.84246627012616
    }, {
      "timestamp" : "2021-06-30T15:09:22Z",
      "value" : 16.98045069242701
    } ],
    "name" : "SYSTEM_CPU_USER",
    "units" : "PERCENT"
  }, {
    "dataPoints" : [ {
      "timestamp" : "2021-06-24T14:09:19Z",
      "value" : null
    }, {
      "timestamp" : "2021-06-25T14:09:19Z",
      "value" : 6.668738959021818
    }, {
      "timestamp" : "2021-06-26T15:09:19Z",
      "value" : 5.786280069479761
    }, {
      "timestamp" : "2021-06-27T15:09:20Z",
      "value" : 5.797653882983315
    }, {
      "timestamp" : "2021-06-28T15:09:20Z",
      "value" : 5.640883517816692
    }, {
      "timestamp" : "2021-06-29T15:09:22Z",
      "value" : 5.716919726415245
    }, {
      "timestamp" : "2021-06-30T15:09:22Z",
      "value" : 5.711785855183046
    } ],
    "name" : "SYSTEM_CPU_KERNEL",
    "units" : "PERCENT"
  }, {
    "dataPoints" : [ {
      "timestamp" : "2021-06-24T14:09:19Z",
      "value" : null
    }, {
      "timestamp" : "2021-06-25T14:09:19Z",
      "value" : 4.629613929665725E-5
    }, {
      "timestamp" : "2021-06-26T15:09:19Z",
      "value" : 4.444429135855199E-5
    }, {
      "timestamp" : "2021-06-27T15:09:20Z",
      "value" : 4.6296138760824125E-5
    }, {
      "timestamp" : "2021-06-28T15:09:20Z",
      "value" : 4.6296138224991015E-5
    }, {
      "timestamp" : "2021-06-29T15:09:22Z",
      "value" : 5.786930005623276E-5
    }, {
      "timestamp" : "2021-06-30T15:09:22Z",
      "value" : 4.629613661749176E-5
    } ],
    "name" : "SYSTEM_CPU_NICE",
    "units" : "PERCENT"
  }, {
    "dataPoints" : [ {
      "timestamp" : "2021-06-24T14:09:19Z",
      "value" : null
    }, {
      "timestamp" : "2021-06-25T14:09:19Z",
      "value" : 3.8857044153773876
    }, {
      "timestamp" : "2021-06-26T15:09:19Z",
      "value" : 3.71512053680704
    }, {
      "timestamp" : "2021-06-27T15:09:20Z",
      "value" : 3.2915860216864545
    }, {
      "timestamp" : "2021-06-28T15:09:20Z",
      "value" : 3.1008806162062297
    }, {
      "timestamp" : "2021-06-29T15:09:22Z",
      "value" : 3.136793835688085
    }, {
      "timestamp" : "2021-06-30T15:09:22Z",
      "value" : 3.180509863519221
    } ],
    "name" : "SYSTEM_CPU_IOWAIT",
    "units" : "PERCENT"
  }, {
    "dataPoints" : [ {
      "timestamp" : "2021-06-24T14:09:19Z",
      "value" : null
    }, {
      "timestamp" : "2021-06-25T14:09:19Z",
      "value" : 0.0
    }, {
      "timestamp" : "2021-06-26T15:09:19Z",
      "value" : 0.0
    }, {
      "timestamp" : "2021-06-27T15:09:20Z",
      "value" : 0.0
    }, {
      "timestamp" : "2021-06-28T15:09:20Z",
      "value" : 0.0
    }, {
      "timestamp" : "2021-06-29T15:09:22Z",
      "value" : 0.0
    }, {
      "timestamp" : "2021-06-30T15:09:22Z",
      "value" : 0.0
    } ],
    "name" : "SYSTEM_CPU_IRQ",
    "units" : "PERCENT"
  }, {
    "dataPoints" : [ {
      "timestamp" : "2021-06-24T14:09:19Z",
      "value" : null
    }, {
      "timestamp" : "2021-06-25T14:09:19Z",
      "value" : 0.5191417580030661
    }, {
      "timestamp" : "2021-06-26T15:09:19Z",
      "value" : 0.48075389962545684
    }, {
      "timestamp" : "2021-06-27T15:09:20Z",
      "value" : 0.49174601188278366
    }, {
      "timestamp" : "2021-06-28T15:09:20Z",
      "value" : 0.5007506050760591
    }, {
      "timestamp" : "2021-06-29T15:09:22Z",
      "value" : 0.5041341943698773
    }, {
      "timestamp" : "2021-06-30T15:09:22Z",
      "value" : 0.5034357636127598
    } ],
    "name" : "SYSTEM_CPU_SOFTIRQ",
    "units" : "PERCENT"
  }, {
    "dataPoints" : [ {
      "timestamp" : "2021-06-24T14:09:19Z",
      "value" : null
    }, {
      "timestamp" : "2021-06-25T14:09:19Z",
      "value" : 0.0
    }, {
      "timestamp" : "2021-06-26T15:09:19Z",
      "value" : 0.0
    }, {
      "timestamp" : "2021-06-27T15:09:20Z",
      "value" : 0.0
    }, {
      "timestamp" : "2021-06-28T15:09:20Z",
      "value" : 0.0
    }, {
      "timestamp" : "2021-06-29T15:09:22Z",
      "value" : 0.0
    }, {
      "timestamp" : "2021-06-30T15:09:22Z",
      "value" : 0.0
    } ],
    "name" : "SYSTEM_CPU_GUEST",
    "units" : "PERCENT"
  }, {
    "dataPoints" : [ {
      "timestamp" : "2021-06-24T14:09:19Z",
      "value" : null
    }, {
      "timestamp" : "2021-06-25T14:09:19Z",
      "value" : 0.0
    }, {
      "timestamp" : "2021-06-26T15:09:19Z",
      "value" : 0.0
    }, {
      "timestamp" : "2021-06-27T15:09:20Z",
      "value" : 0.0
    }, {
      "timestamp" : "2021-06-28T15:09:20Z",
      "value" : 0.0
    }, {
      "timestamp" : "2021-06-29T15:09:22Z",
      "value" : 0.0
    }, {
      "timestamp" : "2021-06-30T15:09:22Z",
      "value" : 0.0
    } ],
    "name" : "SYSTEM_CPU_STEAL",
    "units" : "PERCENT"
  }, {
    "dataPoints" : [ {
      "timestamp" : "2021-06-24T14:09:19Z",
      "value" : null
    }, {
      "timestamp" : "2021-06-25T14:09:19Z",
      "value" : 1.384606849655012
    }, {
      "timestamp" : "2021-06-26T15:09:19Z",
      "value" : 1.0508477693021279
    }, {
      "timestamp" : "2021-06-27T15:09:20Z",
      "value" : 1.0523908055220275
    }, {
      "timestamp" : "2021-06-28T15:09:20Z",
      "value" : 1.0452792724839657
    }, {
      "timestamp" : "2021-06-29T15:09:22Z",
      "value" : 1.052654141882885
    }, {
      "timestamp" : "2021-06-30T15:09:22Z",
      "value" : 1.061278168276688
    } ],
    "name" : "SYSTEM_NORMALIZED_CPU_USER",
    "units" : "PERCENT"
  }, {
    "dataPoints" : [ {
      "timestamp" : "2021-06-24T14:09:19Z",
      "value" : null
    }, {
      "timestamp" : "2021-06-25T14:09:19Z",
      "value" : 0.4167961849388636
    }, {
      "timestamp" : "2021-06-26T15:09:19Z",
      "value" : 0.36164250434248507
    }, {
      "timestamp" : "2021-06-27T15:09:20Z",
      "value" : 0.3623533676864572
    }, {
      "timestamp" : "2021-06-28T15:09:20Z",
      "value" : 0.35255521986354327
    }, {
      "timestamp" : "2021-06-29T15:09:22Z",
      "value" : 0.3573074829009528
    }, {
      "timestamp" : "2021-06-30T15:09:22Z",
      "value" : 0.3569866159489404
    } ],
    "name" : "SYSTEM_NORMALIZED_CPU_KERNEL",
    "units" : "PERCENT"
  }, {
    "dataPoints" : [ {
      "timestamp" : "2021-06-24T14:09:19Z",
      "value" : null
    }, {
      "timestamp" : "2021-06-25T14:09:19Z",
      "value" : 2.893508706041078E-6
    }, {
      "timestamp" : "2021-06-26T15:09:19Z",
      "value" : 2.777768209909499E-6
    }, {
      "timestamp" : "2021-06-27T15:09:20Z",
      "value" : 2.893508672551508E-6
    }, {
      "timestamp" : "2021-06-28T15:09:20Z",
      "value" : 2.8935086390619385E-6
    }, {
      "timestamp" : "2021-06-29T15:09:22Z",
      "value" : 3.6168312535145475E-6
    }, {
      "timestamp" : "2021-06-30T15:09:22Z",
      "value" : 2.893508538593235E-6
    } ],
    "name" : "SYSTEM_NORMALIZED_CPU_NICE",
    "units" : "PERCENT"
  }, {
    "dataPoints" : [ {
      "timestamp" : "2021-06-24T14:09:19Z",
      "value" : null
    }, {
      "timestamp" : "2021-06-25T14:09:19Z",
      "value" : 0.24285652596108673
    }, {
      "timestamp" : "2021-06-26T15:09:19Z",
      "value" : 0.23219503355044
    }, {
      "timestamp" : "2021-06-27T15:09:20Z",
      "value" : 0.2057241263554034
    }, {
      "timestamp" : "2021-06-28T15:09:20Z",
      "value" : 0.19380503851288935
    }, {
      "timestamp" : "2021-06-29T15:09:22Z",
      "value" : 0.1960496147305053
    }, {
      "timestamp" : "2021-06-30T15:09:22Z",
      "value" : 0.1987818664699513
    } ],
    "name" : "SYSTEM_NORMALIZED_CPU_IOWAIT",
    "units" : "PERCENT"
  }, {
    "dataPoints" : [ {
      "timestamp" : "2021-06-24T14:09:19Z",
      "value" : null
    }, {
      "timestamp" : "2021-06-25T14:09:19Z",
      "value" : 0.0
    }, {
      "timestamp" : "2021-06-26T15:09:19Z",
      "value" : 0.0
    }, {
      "timestamp" : "2021-06-27T15:09:20Z",
      "value" : 0.0
    }, {
      "timestamp" : "2021-06-28T15:09:20Z",
      "value" : 0.0
    }, {
      "timestamp" : "2021-06-29T15:09:22Z",
      "value" : 0.0
    }, {
      "timestamp" : "2021-06-30T15:09:22Z",
      "value" : 0.0
    } ],
    "name" : "SYSTEM_NORMALIZED_CPU_IRQ",
    "units" : "PERCENT"
  }, {
    "dataPoints" : [ {
      "timestamp" : "2021-06-24T14:09:19Z",
      "value" : null
    }, {
      "timestamp" : "2021-06-25T14:09:19Z",
      "value" : 0.03244635987519163
    }, {
      "timestamp" : "2021-06-26T15:09:19Z",
      "value" : 0.030047118726591052
    }, {
      "timestamp" : "2021-06-27T15:09:20Z",
      "value" : 0.03073412574267398
    }, {
      "timestamp" : "2021-06-28T15:09:20Z",
      "value" : 0.03129691281725369
    }, {
      "timestamp" : "2021-06-29T15:09:22Z",
      "value" : 0.03150838714811733
    }, {
      "timestamp" : "2021-06-30T15:09:22Z",
      "value" : 0.031464735225797485
    } ],
    "name" : "SYSTEM_NORMALIZED_CPU_SOFTIRQ",
    "units" : "PERCENT"
  }, {
    "dataPoints" : [ {
      "timestamp" : "2021-06-24T14:09:19Z",
      "value" : null
    }, {
      "timestamp" : "2021-06-25T14:09:19Z",
      "value" : 0.0
    }, {
      "timestamp" : "2021-06-26T15:09:19Z",
      "value" : 0.0
    }, {
      "timestamp" : "2021-06-27T15:09:20Z",
      "value" : 0.0
    }, {
      "timestamp" : "2021-06-28T15:09:20Z",
      "value" : 0.0
    }, {
      "timestamp" : "2021-06-29T15:09:22Z",
      "value" : 0.0
    }, {
      "timestamp" : "2021-06-30T15:09:22Z",
      "value" : 0.0
    } ],
    "name" : "SYSTEM_NORMALIZED_CPU_GUEST",
    "units" : "PERCENT"
  }, {
    "dataPoints" : [ {
      "timestamp" : "2021-06-24T14:09:19Z",
      "value" : null
    }, {
      "timestamp" : "2021-06-25T14:09:19Z",
      "value" : 0.0
    }, {
      "timestamp" : "2021-06-26T15:09:19Z",
      "value" : 0.0
    }, {
      "timestamp" : "2021-06-27T15:09:20Z",
      "value" : 0.0
    }, {
      "timestamp" : "2021-06-28T15:09:20Z",
      "value" : 0.0
    }, {
      "timestamp" : "2021-06-29T15:09:22Z",
      "value" : 0.0
    }, {
      "timestamp" : "2021-06-30T15:09:22Z",
      "value" : 0.0
    } ],
    "name" : "SYSTEM_NORMALIZED_CPU_STEAL",
    "units" : "PERCENT"
  }, {
    "dataPoints" : [ {
      "timestamp" : "2021-06-24T14:09:19Z",
      "value" : null
    }, {
      "timestamp" : "2021-06-25T14:09:19Z",
      "value" : 1752641.0031618758
    }, {
      "timestamp" : "2021-06-26T15:09:19Z",
      "value" : 461398.4777607988
    }, {
      "timestamp" : "2021-06-27T15:09:20Z",
      "value" : 516874.7087943937
    }, {
      "timestamp" : "2021-06-28T15:09:20Z",
      "value" : 354430.8150221015
    }, {
      "timestamp" : "2021-06-29T15:09:22Z",
      "value" : 269548.94599287387
    }, {
      "timestamp" : "2021-06-30T15:09:22Z",
      "value" : 322430.83244921215
    } ],
    "name" : "SYSTEM_NETWORK_IN",
    "units" : "BYTES_PER_SECOND"
  }, {
    "dataPoints" : [ {
      "timestamp" : "2021-06-24T14:09:19Z",
      "value" : null
    }, {
      "timestamp" : "2021-06-25T14:09:19Z",
      "value" : 180396.06381890393
    }, {
      "timestamp" : "2021-06-26T15:09:19Z",
      "value" : 173507.89650613428
    }, {
      "timestamp" : "2021-06-27T15:09:20Z",
      "value" : 169484.74252876965
    }, {
      "timestamp" : "2021-06-28T15:09:20Z",
      "value" : 171423.15408761046
    }, {
      "timestamp" : "2021-06-29T15:09:22Z",
      "value" : 174535.78734735903
    }, {
      "timestamp" : "2021-06-30T15:09:22Z",
      "value" : 173251.8693974875
    } ],
    "name" : "SYSTEM_NETWORK_OUT",
    "units" : "BYTES_PER_SECOND"
  }, {
    "dataPoints" : [ {
      "timestamp" : "2021-06-24T14:09:19Z",
      "value" : null
    }, {
      "timestamp" : "2021-06-25T14:09:19Z",
      "value" : 0.0
    }, {
      "timestamp" : "2021-06-26T15:09:19Z",
      "value" : 0.0
    }, {
      "timestamp" : "2021-06-27T15:09:20Z",
      "value" : 0.0
    }, {
      "timestamp" : "2021-06-28T15:09:20Z",
      "value" : 0.0
    }, {
      "timestamp" : "2021-06-29T15:09:22Z",
      "value" : 0.0
    }, {
      "timestamp" : "2021-06-30T15:09:22Z",
      "value" : 0.0
    } ],
    "name" : "SWAP_IO_IN",
    "units" : "SCALAR_PER_SECOND"
  }, {
    "dataPoints" : [ {
      "timestamp" : "2021-06-24T14:09:19Z",
      "value" : null
    }, {
      "timestamp" : "2021-06-25T14:09:19Z",
      "value" : 0.0
    }, {
      "timestamp" : "2021-06-26T15:09:19Z",
      "value" : 0.0
    }, {
      "timestamp" : "2021-06-27T15:09:20Z",
      "value" : 0.0
    }, {
      "timestamp" : "2021-06-28T15:09:20Z",
      "value" : 0.0
    }, {
      "timestamp" : "2021-06-29T15:09:22Z",
      "value" : 0.0
    }, {
      "timestamp" : "2021-06-30T15:09:22Z",
      "value" : 0.0
    } ],
    "name" : "SWAP_IO_OUT",
    "units" : "SCALAR_PER_SECOND"
  }, {
    "dataPoints" : [ {
      "timestamp" : "2021-06-24T14:09:19Z",
      "value" : 65138154
    }, {
      "timestamp" : "2021-06-25T14:09:19Z",
      "value" : 65364317
    }, {
      "timestamp" : "2021-06-26T15:09:19Z",
      "value" : 65406894
    }, {
      "timestamp" : "2021-06-27T15:09:20Z",
      "value" : 65412760
    }, {
      "timestamp" : "2021-06-28T15:09:20Z",
      "value" : 65245383
    }, {
      "timestamp" : "2021-06-29T15:09:22Z",
      "value" : 65354111
    }, {
      "timestamp" : "2021-06-30T15:09:22Z",
      "value" : 65378819
    } ],
    "name" : "SYSTEM_MEMORY_USED",
    "units" : "KILOBYTES"
  }, {
    "dataPoints" : [ {
      "timestamp" : "2021-06-24T14:09:19Z",
      "value" : 38163085
    }, {
      "timestamp" : "2021-06-25T14:09:19Z",
      "value" : 39602467
    }, {
      "timestamp" : "2021-06-26T15:09:19Z",
      "value" : 39089350
    }, {
      "timestamp" : "2021-06-27T15:09:20Z",
      "value" : 38195651
    }, {
      "timestamp" : "2021-06-28T15:09:20Z",
      "value" : 38256636
    }, {
      "timestamp" : "2021-06-29T15:09:22Z",
      "value" : 38221009
    }, {
      "timestamp" : "2021-06-30T15:09:22Z",
      "value" : 37638750
    } ],
    "name" : "SYSTEM_MEMORY_AVAILABLE",
    "units" : "KILOBYTES"
  }, {
    "dataPoints" : [ {
      "timestamp" : "2021-06-24T14:09:19Z",
      "value" : 668706
    }, {
      "timestamp" : "2021-06-25T14:09:19Z",
      "value" : 442543
    }, {
      "timestamp" : "2021-06-26T15:09:19Z",
      "value" : 399966
    }, {
      "timestamp" : "2021-06-27T15:09:20Z",
      "value" : 394100
    }, {
      "timestamp" : "2021-06-28T15:09:20Z",
      "value" : 561477
    }, {
      "timestamp" : "2021-06-29T15:09:22Z",
      "value" : 452749
    }, {
      "timestamp" : "2021-06-30T15:09:22Z",
      "value" : 428041
    } ],
    "name" : "SYSTEM_MEMORY_FREE",
    "units" : "KILOBYTES"
  }, {
    "dataPoints" : [ {
      "timestamp" : "2021-06-24T14:09:19Z",
      "value" : 972
    }, {
      "timestamp" : "2021-06-25T14:09:19Z",
      "value" : 973
    }, {
      "timestamp" : "2021-06-26T15:09:19Z",
      "value" : 971
    }, {
      "timestamp" : "2021-06-27T15:09:20Z",
      "value" : 973
    }, {
      "timestamp" : "2021-06-28T15:09:20Z",
      "value" : 971
    }, {
      "timestamp" : "2021-06-29T15:09:22Z",
      "value" : 970
    }, {
      "timestamp" : "2021-06-30T15:09:22Z",
      "value" : 970
    } ],
    "name" : "SYSTEM_MEMORY_SHARED",
    "units" : "KILOBYTES"
  }, {
    "dataPoints" : [ {
      "timestamp" : "2021-06-24T14:09:19Z",
      "value" : 36619389
    }, {
      "timestamp" : "2021-06-25T14:09:19Z",
      "value" : 38207279
    }, {
      "timestamp" : "2021-06-26T15:09:19Z",
      "value" : 37750684
    }, {
      "timestamp" : "2021-06-27T15:09:20Z",
      "value" : 36899107
    }, {
      "timestamp" : "2021-06-28T15:09:20Z",
      "value" : 36781260
    }, {
      "timestamp" : "2021-06-29T15:09:22Z",
      "value" : 36836236
    }, {
      "timestamp" : "2021-06-30T15:09:22Z",
      "value" : 36304005
    } ],
    "name" : "SYSTEM_MEMORY_CACHED",
    "units" : "KILOBYTES"
  }, {
    "dataPoints" : [ {
      "timestamp" : "2021-06-24T14:09:19Z",
      "value" : 4200
    }, {
      "timestamp" : "2021-06-25T14:09:19Z",
      "value" : 4200
    }, {
      "timestamp" : "2021-06-26T15:09:19Z",
      "value" : 4200
    }, {
      "timestamp" : "2021-06-27T15:09:20Z",
      "value" : 3970
    }, {
      "timestamp" : "2021-06-28T15:09:20Z",
      "value" : 3168
    }, {
      "timestamp" : "2021-06-29T15:09:22Z",
      "value" : 3168
    }, {
      "timestamp" : "2021-06-30T15:09:22Z",
      "value" : 3168
    } ],
    "name" : "SYSTEM_MEMORY_BUFFERS",
    "units" : "KILOBYTES"
  }, {
    "dataPoints" : [ {
      "timestamp" : "2021-06-24T14:09:19Z",
      "value" : 0
    }, {
      "timestamp" : "2021-06-25T14:09:19Z",
      "value" : 0
    }, {
      "timestamp" : "2021-06-26T15:09:19Z",
      "value" : 0
    }, {
      "timestamp" : "2021-06-27T15:09:20Z",
      "value" : 0
    }, {
      "timestamp" : "2021-06-28T15:09:20Z",
      "value" : 0
    }, {
      "timestamp" : "2021-06-29T15:09:22Z",
      "value" : 0
    }, {
      "timestamp" : "2021-06-30T15:09:22Z",
      "value" : 0
    } ],
    "name" : "SWAP_USAGE_USED",
    "units" : "KILOBYTES"
  }, {
    "dataPoints" : [ {
      "timestamp" : "2021-06-24T14:09:19Z",
      "value" : 8388604
    }, {
      "timestamp" : "2021-06-25T14:09:19Z",
      "value" : 8388604
    }, {
      "timestamp" : "2021-06-26T15:09:19Z",
      "value" : 8388604
    }, {
      "timestamp" : "2021-06-27T15:09:20Z",
      "value" : 8388604
    }, {
      "timestamp" : "2021-06-28T15:09:20Z",
      "value" : 8388604
    }, {
      "timestamp" : "2021-06-29T15:09:22Z",
      "value" : 8388604
    }, {
      "timestamp" : "2021-06-30T15:09:22Z",
      "value" : 8388604
    } ],
    "name" : "SWAP_USAGE_FREE",
    "units" : "KILOBYTES"
  } ],
  "processId" : "prod-shard-00-01-etya8.azure.mongodb.net:27017",
  "start" : "2021-06-24T14:09:19Z"
}