{
  "end" : "2021-06-24T14:09:27Z",
  "granularity" : "PT24H",
  "groupId" : "5d5ce93aff7a259f5eb7a2db",
  "hostId" : "prod-shard-00-02-etya8.azure.mongodb.net:27017",
  "links" : [ {
    "href" : "https://cloud.mongodb.com/api/atlas/v1.0/groups/5d5ce93aff7a259f5eb7a2db/processes/prod-shard-00-02.etya8.azure.mongodb.net:27017/measurements?granularity=PT24H&period=PT168H&pretty=true",
    "rel" : "self"
  }, {
    "href" : "https://cloud.mongodb.com/api/atlas/v1.0/groups/5d5ce93aff7a259f5eb7a2db/processes/prod-shard-00-02-etya8.azure.mongodb.net:27017",
    "rel" : "http://cloud.mongodb.com/host"
  } ],
  "measurements" : [ {
    "dataPoints" : [ {
      "timestamp" : "2021-06-18T15:09:00Z",
      "value" : null
    }, {
      "timestamp" : "2021-06-19T15:09:39Z",
      "value" : 0.0
    }, {
      "timestamp" : "2021-06-20T01:18:52Z",
      "value" : 0.0
    }, {
      "timestamp" : "2021-06-20T15:08:59Z",
      "value" : 0.0
    }, {
      "timestamp" : "2021-06-21T15:08:46Z",
      "value" : 0.0
    }, {
      "timestamp" : "2021-06-22T14:09:01Z",
      "value" : 0.0
    }, {
      "timestamp" : "2021-06-23T14:09:21Z",
      "value" : 0.0
    }, {
      "timestamp" : "2021-06-24T14:09:27Z",
      "value" : 0.0
    } ],
    "name" : "ASSERT_REGULAR",
    "units" : "SCALAR_PER_SECOND"
  }, {
    "dataPoints" : [ {
      "timestamp" : "2021-06-18T15:09:00Z",
      "value" : null
    }, {
      "timestamp" : "2021-06-19T15:09:39Z",
      "value" : 0.0
    }, {
      "timestamp" : "2021-06-20T01:18:52Z",
      "value" : 0.0
    }, {
      "timestamp" : "2021-06-20T15:08:59Z",
      "value" : 0.0
    }, {
      "timestamp" : "2021-06-21T15:08:46Z",
      "value" : 0.0
    }, {
      "timestamp" : "2021-06-22T14:09:01Z",
      "value" : 0.0
    }, {
      "timestamp" : "2021-06-23T14:09:21Z",
      "value" : 0.0
    }, {
      "timestamp" : "2021-06-24T14:09:27Z",
      "value" : 0.0
    } ],
    "name" : "ASSERT_WARNING",
    "units" : "SCALAR_PER_SECOND"
  }, {
    "dataPoints" : [ {
      "timestamp" : "2021-06-18T15:09:00Z",
      "value" : null
    }, {
      "timestamp" : "2021-06-19T15:09:39Z",
      "value" : 0.0
    }, {
      "timestamp" : "2021-06-20T01:18:52Z",
      "value" : 0.0
    }, {
      "timestamp" : "2021-06-20T15:08:59Z",
      "value" : 0.0
    }, {
      "timestamp" : "2021-06-21T15:08:46Z",
      "value" : 0.0
    }, {
      "timestamp" : "2021-06-22T14:09:01Z",
      "value" : 0.0
    }, {
      "timestamp" : "2021-06-23T14:09:21Z",
      "value" : 0.0
    }, {
      "timestamp" : "2021-06-24T14:09:27Z",
      "value" : 0.0
    } ],
    "name" : "ASSERT_MSG",
    "units" : "SCALAR_PER_SECOND"
  }, {
    "dataPoints" : [ {
      "timestamp" : "2021-06-18T15:09:00Z",
      "value" : null
    }, {
      "timestamp" : "2021-06-19T15:09:39Z",
      "value" : null
    }, {
      "timestamp" : "2021-06-20T01:18:52Z",
      "value" : 0.005553628048415161
    }, {
      "timestamp" : "2021-06-20T15:08:59Z",
      "value" : null
    }, {
      "timestamp" : "2021-06-21T15:08:46Z",
      "value" : 0.06108522291505004
    }, {
      "timestamp" : "2021-06-22T14:09:01Z",
      "value" : 0.009974026596285298
    }, {
      "timestamp" : "2021-06-23T14:09:21Z",
      "value" : null
    }, {
      "timestamp" : "2021-06-24T14:09:27Z",
      "value" : 0.005103851338443928
    } ],
    "name" : "ASSERT_USER",
    "units" : "SCALAR_PER_SECOND"
  }, {
    "dataPoints" : [ {
      "timestamp" : "2021-06-18T15:09:00Z",
      "value" : null
    }, {
      "timestamp" : "2021-06-19T15:09:39Z",
      "value" : null
    }, {
      "timestamp" : "2021-06-20T01:18:52Z",
      "value" : 1.1171048961550891E7
    }, {
      "timestamp" : "2021-06-20T15:08:59Z",
      "value" : null
    }, {
      "timestamp" : "2021-06-21T15:08:46Z",
      "value" : 6089533.170196314
    }, {
      "timestamp" : "2021-06-22T14:09:01Z",
      "value" : 4578508.121351155
    }, {
      "timestamp" : "2021-06-23T14:09:21Z",
      "value" : null
    }, {
      "timestamp" : "2021-06-24T14:09:27Z",
      "value" : 7332578.433429657
    } ],
    "name" : "CACHE_BYTES_READ_INTO",
    "units" : "BYTES_PER_SECOND"
  }, {
    "dataPoints" : [ {
      "timestamp" : "2021-06-18T15:09:00Z",
      "value" : null
    }, {
      "timestamp" : "2021-06-19T15:09:39Z",
      "value" : null
    }, {
      "timestamp" : "2021-06-20T01:18:52Z",
      "value" : 4.36806229953523E7
    }, {
      "timestamp" : "2021-06-20T15:08:59Z",
      "value" : null
    }, {
      "timestamp" : "2021-06-21T15:08:46Z",
      "value" : 2.465792771712761E7
    }, {
      "timestamp" : "2021-06-22T14:09:01Z",
      "value" : 1.4337950953762671E7
    }, {
      "timestamp" : "2021-06-23T14:09:21Z",
      "value" : null
    }, {
      "timestamp" : "2021-06-24T14:09:27Z",
      "value" : 2.767990331576505E7
    } ],
    "name" : "CACHE_BYTES_WRITTEN_FROM",
    "units" : "BYTES_PER_SECOND"
  }, {
    "dataPoints" : [ {
      "timestamp" : "2021-06-18T15:09:00Z",
      "value" : 988093426
    }, {
      "timestamp" : "2021-06-19T15:09:39Z",
      "value" : 1020902290
    }, {
      "timestamp" : "2021-06-20T01:18:52Z",
      "value" : 1007520244
    }, {
      "timestamp" : "2021-06-20T15:08:59Z",
      "value" : 1070512076
    }, {
      "timestamp" : "2021-06-21T15:08:46Z",
      "value" : 714315209
    }, {
      "timestamp" : "2021-06-22T14:09:01Z",
      "value" : 785899540
    }, {
      "timestamp" : "2021-06-23T14:09:21Z",
      "value" : 871041767
    }, {
      "timestamp" : "2021-06-24T14:09:27Z",
      "value" : 942981296
    } ],
    "name" : "CACHE_DIRTY_BYTES",
    "units" : "BYTES"
  }, {
    "dataPoints" : [ {
      "timestamp" : "2021-06-18T15:09:00Z",
      "value" : 24023414971
    }, {
      "timestamp" : "2021-06-19T15:09:39Z",
      "value" : 24000313209
    }, {
      "timestamp" : "2021-06-20T01:18:52Z",
      "value" : 24045278764
    }, {
      "timestamp" : "2021-06-20T15:08:59Z",
      "value" : 23912467117
    }, {
      "timestamp" : "2021-06-21T15:08:46Z",
      "value" : 24013583545
    }, {
      "timestamp" : "2021-06-22T14:09:01Z",
      "value" : 24000455226
    }, {
      "timestamp" : "2021-06-23T14:09:21Z",
      "value" : 23878914506
    }, {
      "timestamp" : "2021-06-24T14:09:27Z",
      "value" : 24014581023
    } ],
    "name" : "CACHE_USED_BYTES",
    "units" : "BYTES"
  }, {
    "dataPoints" : [ {
      "timestamp" : "2021-06-18T15:09:00Z",
      "value" : 142
    }, {
      "timestamp" : "2021-06-19T15:09:39Z",
      "value" : 196
    }, {
      "timestamp" : "2021-06-20T01:18:52Z",
      "value" : 370
    }, {
      "timestamp" : "2021-06-20T15:08:59Z",
      "value" : 276
    }, {
      "timestamp" : "2021-06-21T15:08:46Z",
      "value" : 379
    }, {
      "timestamp" : "2021-06-22T14:09:01Z",
      "value" : 388
    }, {
      "timestamp" : "2021-06-23T14:09:21Z",
      "value" : 143
    }, {
      "timestamp" : "2021-06-24T14:09:27Z",
      "value" : 254
    } ],
    "name" : "CONNECTIONS",
    "units" : "SCALAR"
  }, {
    "dataPoints" : [ {
      "timestamp" : "2021-06-18T15:09:00Z",
      "value" : 0
    }, {
      "timestamp" : "2021-06-19T15:09:39Z",
      "value" : 1
    }, {
      "timestamp" : "2021-06-20T01:18:52Z",
      "value" : 2
    }, {
      "timestamp" : "2021-06-20T15:08:59Z",
      "value" : 0
    }, {
      "timestamp" : "2021-06-21T15:08:46Z",
      "value" : 3
    }, {
      "timestamp" : "2021-06-22T14:09:01Z",
      "value" : 3
    }, {
      "timestamp" : "2021-06-23T14:09:21Z",
      "value" : 0
    }, {
      "timestamp" : "2021-06-24T14:09:27Z",
      "value" : 0
    } ],
    "name" : "CURSORS_TOTAL_OPEN",
    "units" : "SCALAR"
  }, {
    "dataPoints" : [ {
      "timestamp" : "2021-06-18T15:09:00Z",
      "value" : null
    }, {
      "timestamp" : "2021-06-19T15:09:39Z",
      "value" : null
    }, {
      "timestamp" : "2021-06-20T01:18:52Z",
      "value" : 0.0
    }, {
      "timestamp" : "2021-06-20T15:08:59Z",
      "value" : null
    }, {
      "timestamp" : "2021-06-21T15:08:46Z",
      "value" : 0.0
    }, {
      "timestamp" : "2021-06-22T14:09:01Z",
      "value" : null
    }, {
      "timestamp" : "2021-06-23T14:09:21Z",
      "value" : null
    }, {
      "timestamp" : "2021-06-24T14:09:27Z",
      "value" : 0.0
    } ],
    "name" : "CURSORS_TOTAL_TIMED_OUT",
    "units" : "SCALAR_PER_SECOND"
  }, {
    "dataPoints" : [ {
      "timestamp" : "2021-06-18T15:09:00Z",
      "value" : 499783293552
    }, {
      "timestamp" : "2021-06-19T15:09:39Z",
      "value" : 500739014429
    }, {
      "timestamp" : "2021-06-20T01:18:52Z",
      "value" : 501017197226
    }, {
      "timestamp" : "2021-06-20T15:08:59Z",
      "value" : 501274764142
    }, {
      "timestamp" : "2021-06-21T15:08:46Z",
      "value" : 501588634134
    }, {
      "timestamp" : "2021-06-22T14:09:01Z",
      "value" : 502245807959
    }, {
      "timestamp" : "2021-06-23T14:09:21Z",
      "value" : 503057841495
    }, {
      "timestamp" : "2021-06-24T14:09:27Z",
      "value" : 503630448515
    } ],
    "name" : "DB_STORAGE_TOTAL",
    "units" : "BYTES"
  }, {
    "dataPoints" : [ {
      "timestamp" : "2021-06-18T15:09:00Z",
      "value" : 1251237705632
    }, {
      "timestamp" : "2021-06-19T15:09:39Z",
      "value" : 1252904741407
    }, {
      "timestamp" : "2021-06-20T01:18:52Z",
      "value" : 1255053971648
    }, {
      "timestamp" : "2021-06-20T15:08:59Z",
      "value" : 1255376355197
    }, {
      "timestamp" : "2021-06-21T15:08:46Z",
      "value" : 1257459701529
    }, {
      "timestamp" : "2021-06-22T14:09:01Z",
      "value" : 1259456081218
    }, {
      "timestamp" : "2021-06-23T14:09:21Z",
      "value" : 1261555820243
    }, {
      "timestamp" : "2021-06-24T14:09:27Z",
      "value" : 1262490770357
    } ],
    "name" : "DB_DATA_SIZE_TOTAL",
    "units" : "BYTES"
  }, {
    "dataPoints" : [ {
      "timestamp" : "2021-06-18T15:09:00Z",
      "value" : 6207343542
    }, {
      "timestamp" : "2021-06-19T15:09:39Z",
      "value" : 6214829141
    }, {
      "timestamp" : "2021-06-20T01:18:52Z",
      "value" : 6216166666
    }, {
      "timestamp" : "2021-06-20T15:08:59Z",
      "value" : 6217791293
    }, {
      "timestamp" : "2021-06-21T15:08:46Z",
      "value" : 6222138116
    }, {
      "timestamp" : "2021-06-22T14:09:01Z",
      "value" : 6228427667
    }, {
      "timestamp" : "2021-06-23T14:09:21Z",
      "value" : 6235153997
    }, {
      "timestamp" : "2021-06-24T14:09:27Z",
      "value" : 6236859362
    } ],
    "name" : "DB_INDEX_SIZE_TOTAL",
    "units" : "BYTES"
  }, {
    "dataPoints" : [ {
      "timestamp" : "2021-06-18T15:09:00Z",
      "value" : null
    }, {
      "timestamp" : "2021-06-19T15:09:39Z",
      "value" : 499.4624271112535
    }, {
      "timestamp" : "2021-06-20T01:18:52Z",
      "value" : 2266.708089983657
    }, {
      "timestamp" : "2021-06-20T15:08:59Z",
      "value" : null
    }, {
      "timestamp" : "2021-06-21T15:08:46Z",
      "value" : 2320.4284462203186
    }, {
      "timestamp" : "2021-06-22T14:09:01Z",
      "value" : 2318.4347216683277
    }, {
      "timestamp" : "2021-06-23T14:09:21Z",
      "value" : null
    }, {
      "timestamp" : "2021-06-24T14:09:27Z",
      "value" : 1056.1309302441475
    } ],
    "name" : "DOCUMENT_METRICS_RETURNED",
    "units" : "SCALAR_PER_SECOND"
  }, {
    "dataPoints" : [ {
      "timestamp" : "2021-06-18T15:09:00Z",
      "value" : null
    }, {
      "timestamp" : "2021-06-19T15:09:39Z",
      "value" : null
    }, {
      "timestamp" : "2021-06-20T01:18:52Z",
      "value" : 0.31860863178247767
    }, {
      "timestamp" : "2021-06-20T15:08:59Z",
      "value" : null
    }, {
      "timestamp" : "2021-06-21T15:08:46Z",
      "value" : 0.39525392011263666
    }, {
      "timestamp" : "2021-06-22T14:09:01Z",
      "value" : 0.4318898417304313
    }, {
      "timestamp" : "2021-06-23T14:09:21Z",
      "value" : null
    }, {
      "timestamp" : "2021-06-24T14:09:27Z",
      "value" : null
    } ],
    "name" : "DOCUMENT_METRICS_INSERTED",
    "units" : "SCALAR_PER_SECOND"
  }, {
    "dataPoints" : [ {
      "timestamp" : "2021-06-18T15:09:00Z",
      "value" : null
    }, {
      "timestamp" : "2021-06-19T15:09:39Z",
      "value" : 259.6649138441328
    }, {
      "timestamp" : "2021-06-20T01:18:52Z",
      "value" : 1164.0465944468863
    }, {
      "timestamp" : "2021-06-20T15:08:59Z",
      "value" : null
    }, {
      "timestamp" : "2021-06-21T15:08:46Z",
      "value" : 1181.6806145749897
    }, {
      "timestamp" : "2021-06-22T14:09:01Z",
      "value" : 1191.7637265639205
    }, {
      "timestamp" : "2021-06-23T14:09:21Z",
      "value" : null
    }, {
      "timestamp" : "2021-06-24T14:09:27Z",
      "value" : 509.50805840259545
    } ],
    "name" : "DOCUMENT_METRICS_UPDATED",
    "units" : "SCALAR_PER_SECOND"
  }, {
    "dataPoints" : [ {
      "timestamp" : "2021-06-18T15:09:00Z",
      "value" : null
    }, {
      "timestamp" : "2021-06-19T15:09:39Z",
      "value" : null
    }, {
      "timestamp" : "2021-06-20T01:18:52Z",
      "value" : 0.008781845337641708
    }, {
      "timestamp" : "2021-06-20T15:08:59Z",
      "value" : null
    }, {
      "timestamp" : "2021-06-21T15:08:46Z",
      "value" : 0.013242655867882744
    }, {
      "timestamp" : "2021-06-22T14:09:01Z",
      "value" : 0.012727147739085598
    }, {
      "timestamp" : "2021-06-23T14:09:21Z",
      "value" : null
    }, {
      "timestamp" : "2021-06-24T14:09:27Z",
      "value" : null
    } ],
    "name" : "DOCUMENT_METRICS_DELETED",
    "units" : "SCALAR_PER_SECOND"
  }, {
    "dataPoints" : [ {
      "timestamp" : "2021-06-18T15:09:00Z",
      "value" : null
    }, {
      "timestamp" : "2021-06-19T15:09:39Z",
      "value" : null
    }, {
      "timestamp" : "2021-06-20T01:18:52Z",
      "value" : 4.6508215183772286E-4
    }, {
      "timestamp" : "2021-06-20T15:08:59Z",
      "value" : null
    }, {
      "timestamp" : "2021-06-21T15:08:46Z",
      "value" : 4.97757169859229E-4
    }, {
      "timestamp" : "2021-06-22T14:09:01Z",
      "value" : 5.916795438474329E-4
    }, {
      "timestamp" : "2021-06-23T14:09:21Z",
      "value" : null
    }, {
      "timestamp" : "2021-06-24T14:09:27Z",
      "value" : 0.0019211776013190295
    } ],
    "name" : "EXTRA_INFO_PAGE_FAULTS",
    "units" : "SCALAR_PER_SECOND"
  }, {
    "dataPoints" : [ {
      "timestamp" : "2021-06-18T15:09:00Z",
      "value" : 1
    }, {
      "timestamp" : "2021-06-19T15:09:39Z",
      "value" : 2
    }, {
      "timestamp" : "2021-06-20T01:18:52Z",
      "value" : 3
    }, {
      "timestamp" : "2021-06-20T15:08:59Z",
      "value" : 2
    }, {
      "timestamp" : "2021-06-21T15:08:46Z",
      "value" : 4
    }, {
      "timestamp" : "2021-06-22T14:09:01Z",
      "value" : 1
    }, {
      "timestamp" : "2021-06-23T14:09:21Z",
      "value" : 1
    }, {
      "timestamp" : "2021-06-24T14:09:27Z",
      "value" : 2
    } ],
    "name" : "GLOBAL_LOCK_CURRENT_QUEUE_TOTAL",
    "units" : "SCALAR"
  }, {
    "dataPoints" : [ {
      "timestamp" : "2021-06-18T15:09:00Z",
      "value" : 0
    }, {
      "timestamp" : "2021-06-19T15:09:39Z",
      "value" : 0
    }, {
      "timestamp" : "2021-06-20T01:18:52Z",
      "value" : 0
    }, {
      "timestamp" : "2021-06-20T15:08:59Z",
      "value" : 0
    }, {
      "timestamp" : "2021-06-21T15:08:46Z",
      "value" : 0
    }, {
      "timestamp" : "2021-06-22T14:09:01Z",
      "value" : 0
    }, {
      "timestamp" : "2021-06-23T14:09:21Z",
      "value" : 0
    }, {
      "timestamp" : "2021-06-24T14:09:27Z",
      "value" : 0
    } ],
    "name" : "GLOBAL_LOCK_CURRENT_QUEUE_READERS",
    "units" : "SCALAR"
  }, {
    "dataPoints" : [ {
      "timestamp" : "2021-06-18T15:09:00Z",
      "value" : 1
    }, {
      "timestamp" : "2021-06-19T15:09:39Z",
      "value" : 2
    }, {
      "timestamp" : "2021-06-20T01:18:52Z",
      "value" : 2
    }, {
      "timestamp" : "2021-06-20T15:08:59Z",
      "value" : 2
    }, {
      "timestamp" : "2021-06-21T15:08:46Z",
      "value" : 4
    }, {
      "timestamp" : "2021-06-22T14:09:01Z",
      "value" : 1
    }, {
      "timestamp" : "2021-06-23T14:09:21Z",
      "value" : 1
    }, {
      "timestamp" : "2021-06-24T14:09:27Z",
      "value" : 2
    } ],
    "name" : "GLOBAL_LOCK_CURRENT_QUEUE_WRITERS",
    "units" : "SCALAR"
  }, {
    "dataPoints" : [ {
      "timestamp" : "2021-06-18T15:09:00Z",
      "value" : 29837
    }, {
      "timestamp" : "2021-06-19T15:09:39Z",
      "value" : 24462
    }, {
      "timestamp" : "2021-06-20T01:18:52Z",
      "value" : 25161
    }, {
      "timestamp" : "2021-06-20T15:08:59Z",
      "value" : 24817
    }, {
      "timestamp" : "2021-06-21T15:08:46Z",
      "value" : 24618
    }, {
      "timestamp" : "2021-06-22T14:09:01Z",
      "value" : 25682
    }, {
      "timestamp" : "2021-06-23T14:09:21Z",
      "value" : 25464
    }, {
      "timestamp" : "2021-06-24T14:09:27Z",
      "value" : 26473
    } ],
    "name" : "MEMORY_RESIDENT",
    "units" : "MEGABYTES"
  }, {
    "dataPoints" : [ {
      "timestamp" : "2021-06-18T15:09:00Z",
      "value" : 32541
    }, {
      "timestamp" : "2021-06-19T15:09:39Z",
      "value" : 26943
    }, {
      "timestamp" : "2021-06-20T01:18:52Z",
      "value" : 28204
    }, {
      "timestamp" : "2021-06-20T15:08:59Z",
      "value" : 27287
    }, {
      "timestamp" : "2021-06-21T15:08:46Z",
      "value" : 28614
    }, {
      "timestamp" : "2021-06-22T14:09:01Z",
      "value" : 32872
    }, {
      "timestamp" : "2021-06-23T14:09:21Z",
      "value" : 27849
    }, {
      "timestamp" : "2021-06-24T14:09:27Z",
      "value" : 29329
    } ],
    "name" : "MEMORY_VIRTUAL",
    "units" : "MEGABYTES"
  }, {
    "dataPoints" : [ {
      "timestamp" : "2021-06-18T15:09:00Z",
      "value" : null
    }, {
      "timestamp" : "2021-06-19T15:09:39Z",
      "value" : null
    }, {
      "timestamp" : "2021-06-20T01:18:52Z",
      "value" : null
    }, {
      "timestamp" : "2021-06-20T15:08:59Z",
      "value" : null
    }, {
      "timestamp" : "2021-06-21T15:08:46Z",
      "value" : null
    }, {
      "timestamp" : "2021-06-22T14:09:01Z",
      "value" : null
    }, {
      "timestamp" : "2021-06-23T14:09:21Z",
      "value" : null
    }, {
      "timestamp" : "2021-06-24T14:09:27Z",
      "value" : null
    } ],
    "name" : "MEMORY_MAPPED",
    "units" : "MEGABYTES"
  }, {
    "dataPoints" : [ {
      "timestamp" : "2021-06-18T15:09:00Z",
      "value" : null
    }, {
      "timestamp" : "2021-06-19T15:09:39Z",
      "value" : 584260.258392925
    }, {
      "timestamp" : "2021-06-20T01:18:52Z",
      "value" : 2857119.4375011935
    }, {
      "timestamp" : "2021-06-20T15:08:59Z",
      "value" : null
    }, {
      "timestamp" : "2021-06-21T15:08:46Z",
      "value" : 3034548.242376024
    }, {
      "timestamp" : "2021-06-22T14:09:01Z",
      "value" : 3113045.0427886345
    }, {
      "timestamp" : "2021-06-23T14:09:21Z",
      "value" : null
    }, {
      "timestamp" : "2021-06-24T14:09:27Z",
      "value" : 1271823.7755982159
    } ],
    "name" : "NETWORK_BYTES_IN",
    "units" : "BYTES_PER_SECOND"
  }, {
    "dataPoints" : [ {
      "timestamp" : "2021-06-18T15:09:00Z",
      "value" : null
    }, {
      "timestamp" : "2021-06-19T15:09:39Z",
      "value" : 5292234.388338999
    }, {
      "timestamp" : "2021-06-20T01:18:52Z",
      "value" : 2.3763459721970607E7
    }, {
      "timestamp" : "2021-06-20T15:08:59Z",
      "value" : null
    }, {
      "timestamp" : "2021-06-21T15:08:46Z",
      "value" : 1.4331077993999247E7
    }, {
      "timestamp" : "2021-06-22T14:09:01Z",
      "value" : 8410783.107522458
    }, {
      "timestamp" : "2021-06-23T14:09:21Z",
      "value" : null
    }, {
      "timestamp" : "2021-06-24T14:09:27Z",
      "value" : 8384904.150817626
    } ],
    "name" : "NETWORK_BYTES_OUT",
    "units" : "BYTES_PER_SECOND"
  }, {
    "dataPoints" : [ {
      "timestamp" : "2021-06-18T15:09:00Z",
      "value" : null
    }, {
      "timestamp" : "2021-06-19T15:09:39Z",
      "value" : 316.9827070029294
    }, {
      "timestamp" : "2021-06-20T01:18:52Z",
      "value" : 2158.454036286585
    }, {
      "timestamp" : "2021-06-20T15:08:59Z",
      "value" : null
    }, {
      "timestamp" : "2021-06-21T15:08:46Z",
      "value" : 2441.3598471214095
    }, {
      "timestamp" : "2021-06-22T14:09:01Z",
      "value" : 2614.3785688162975
    }, {
      "timestamp" : "2021-06-23T14:09:21Z",
      "value" : null
    }, {
      "timestamp" : "2021-06-24T14:09:27Z",
      "value" : 989.783594157111
    } ],
    "name" : "NETWORK_NUM_REQUESTS",
    "units" : "SCALAR_PER_SECOND"
  }, {
    "dataPoints" : [ {
      "timestamp" : "2021-06-18T15:09:00Z",
      "value" : null
    }, {
      "timestamp" : "2021-06-19T15:09:39Z",
      "value" : null
    }, {
      "timestamp" : "2021-06-20T01:18:52Z",
      "value" : 268.7301851065265
    }, {
      "timestamp" : "2021-06-20T15:08:59Z",
      "value" : null
    }, {
      "timestamp" : "2021-06-21T15:08:46Z",
      "value" : 414.06951155725585
    }, {
      "timestamp" : "2021-06-22T14:09:01Z",
      "value" : 497.8032689425391
    }, {
      "timestamp" : "2021-06-23T14:09:21Z",
      "value" : null
    }, {
      "timestamp" : "2021-06-24T14:09:27Z",
      "value" : 152.7825283201832
    } ],
    "name" : "OPCOUNTER_CMD",
    "units" : "SCALAR_PER_SECOND"
  }, {
    "dataPoints" : [ {
      "timestamp" : "2021-06-18T15:09:00Z",
      "value" : null
    }, {
      "timestamp" : "2021-06-19T15:09:39Z",
      "value" : 98.52727992537572
    }, {
      "timestamp" : "2021-06-20T01:18:52Z",
      "value" : 466.35748917138284
    }, {
      "timestamp" : "2021-06-20T15:08:59Z",
      "value" : null
    }, {
      "timestamp" : "2021-06-21T15:08:46Z",
      "value" : 467.86439775057744
    }, {
      "timestamp" : "2021-06-22T14:09:01Z",
      "value" : 468.8478486272171
    }, {
      "timestamp" : "2021-06-23T14:09:21Z",
      "value" : null
    }, {
      "timestamp" : "2021-06-24T14:09:27Z",
      "value" : 195.82519311480502
    } ],
    "name" : "OPCOUNTER_QUERY",
    "units" : "SCALAR_PER_SECOND"
  }, {
    "dataPoints" : [ {
      "timestamp" : "2021-06-18T15:09:00Z",
      "value" : null
    }, {
      "timestamp" : "2021-06-19T15:09:39Z",
      "value" : 259.68363215120746
    }, {
      "timestamp" : "2021-06-20T01:18:52Z",
      "value" : 1164.127299879117
    }, {
      "timestamp" : "2021-06-20T15:08:59Z",
      "value" : null
    }, {
      "timestamp" : "2021-06-21T15:08:46Z",
      "value" : 1185.6630770850484
    }, {
      "timestamp" : "2021-06-22T14:09:01Z",
      "value" : 1190.2525166334703
    }, {
      "timestamp" : "2021-06-23T14:09:21Z",
      "value" : null
    }, {
      "timestamp" : "2021-06-24T14:09:27Z",
      "value" : 508.4194451041902
    } ],
    "name" : "OPCOUNTER_UPDATE",
    "units" : "SCALAR_PER_SECOND"
  }, {
    "dataPoints" : [ {
      "timestamp" : "2021-06-18T15:09:00Z",
      "value" : null
    }, {
      "timestamp" : "2021-06-19T15:09:39Z",
      "value" : null
    }, {
      "timestamp" : "2021-06-20T01:18:52Z",
      "value" : 0.12513445661798497
    }, {
      "timestamp" : "2021-06-20T15:08:59Z",
      "value" : null
    }, {
      "timestamp" : "2021-06-21T15:08:46Z",
      "value" : 0.13457964783217202
    }, {
      "timestamp" : "2021-06-22T14:09:01Z",
      "value" : 0.1299400728845352
    }, {
      "timestamp" : "2021-06-23T14:09:21Z",
      "value" : null
    }, {
      "timestamp" : "2021-06-24T14:09:27Z",
      "value" : null
    } ],
    "name" : "OPCOUNTER_DELETE",
    "units" : "SCALAR_PER_SECOND"
  }, {
    "dataPoints" : [ {
      "timestamp" : "2021-06-18T15:09:00Z",
      "value" : null
    }, {
      "timestamp" : "2021-06-19T15:09:39Z",
      "value" : 46.36898334407322
    }, {
      "timestamp" : "2021-06-20T01:18:52Z",
      "value" : 259.4985779702841
    }, {
      "timestamp" : "2021-06-20T15:08:59Z",
      "value" : null
    }, {
      "timestamp" : "2021-06-21T15:08:46Z",
      "value" : 376.9425566810848
    }, {
      "timestamp" : "2021-06-22T14:09:01Z",
      "value" : 460.7563048375997
    }, {
      "timestamp" : "2021-06-23T14:09:21Z",
      "value" : null
    }, {
      "timestamp" : "2021-06-24T14:09:27Z",
      "value" : null
    } ],
    "name" : "OPCOUNTER_GETMORE",
    "units" : "SCALAR_PER_SECOND"
  }, {
    "dataPoints" : [ {
      "timestamp" : "2021-06-18T15:09:00Z",
      "value" : null
    }, {
      "timestamp" : "2021-06-19T15:09:39Z",
      "value" : null
    }, {
      "timestamp" : "2021-06-20T01:18:52Z",
      "value" : 0.32066046480529115
    }, {
      "timestamp" : "2021-06-20T15:08:59Z",
      "value" : null
    }, {
      "timestamp" : "2021-06-21T15:08:46Z",
      "value" : 0.3998147648783235
    }, {
      "timestamp" : "2021-06-22T14:09:01Z",
      "value" : 0.43676817919398975
    }, {
      "timestamp" : "2021-06-23T14:09:21Z",
      "value" : null
    }, {
      "timestamp" : "2021-06-24T14:09:27Z",
      "value" : null
    } ],
    "name" : "OPCOUNTER_INSERT",
    "units" : "SCALAR_PER_SECOND"
  }, {
    "dataPoints" : [ {
      "timestamp" : "2021-06-18T15:09:00Z",
      "value" : null
    }, {
      "timestamp" : "2021-06-19T15:09:39Z",
      "value" : 0.0
    }, {
      "timestamp" : "2021-06-20T01:18:52Z",
      "value" : 0.0
    }, {
      "timestamp" : "2021-06-20T15:08:59Z",
      "value" : 0.0
    }, {
      "timestamp" : "2021-06-21T15:08:46Z",
      "value" : 0.0
    }, {
      "timestamp" : "2021-06-22T14:09:01Z",
      "value" : 0.0
    }, {
      "timestamp" : "2021-06-23T14:09:21Z",
      "value" : 0.0
    }, {
      "timestamp" : "2021-06-24T14:09:27Z",
      "value" : 0.0
    } ],
    "name" : "OPCOUNTER_REPL_CMD",
    "units" : "SCALAR_PER_SECOND"
  }, {
    "dataPoints" : [ {
      "timestamp" : "2021-06-18T15:09:00Z",
      "value" : null
    }, {
      "timestamp" : "2021-06-19T15:09:39Z",
      "value" : null
    }, {
      "timestamp" : "2021-06-20T01:18:52Z",
      "value" : 0.0
    }, {
      "timestamp" : "2021-06-20T15:08:59Z",
      "value" : null
    }, {
      "timestamp" : "2021-06-21T15:08:46Z",
      "value" : 0.0
    }, {
      "timestamp" : "2021-06-22T14:09:01Z",
      "value" : 0.0
    }, {
      "timestamp" : "2021-06-23T14:09:21Z",
      "value" : 577.7903913583419
    }, {
      "timestamp" : "2021-06-24T14:09:27Z",
      "value" : 464.505213786676
    } ],
    "name" : "OPCOUNTER_REPL_UPDATE",
    "units" : "SCALAR_PER_SECOND"
  }, {
    "dataPoints" : [ {
      "timestamp" : "2021-06-18T15:09:00Z",
      "value" : null
    }, {
      "timestamp" : "2021-06-19T15:09:39Z",
      "value" : null
    }, {
      "timestamp" : "2021-06-20T01:18:52Z",
      "value" : 0.0
    }, {
      "timestamp" : "2021-06-20T15:08:59Z",
      "value" : null
    }, {
      "timestamp" : "2021-06-21T15:08:46Z",
      "value" : 0.0
    }, {
      "timestamp" : "2021-06-22T14:09:01Z",
      "value" : 0.0
    }, {
      "timestamp" : "2021-06-23T14:09:21Z",
      "value" : 0.045058971362697854
    }, {
      "timestamp" : "2021-06-24T14:09:27Z",
      "value" : 2.7558251088607513
    } ],
    "name" : "OPCOUNTER_REPL_DELETE",
    "units" : "SCALAR_PER_SECOND"
  }, {
    "dataPoints" : [ {
      "timestamp" : "2021-06-18T15:09:00Z",
      "value" : null
    }, {
      "timestamp" : "2021-06-19T15:09:39Z",
      "value" : null
    }, {
      "timestamp" : "2021-06-20T01:18:52Z",
      "value" : 0.0
    }, {
      "timestamp" : "2021-06-20T15:08:59Z",
      "value" : null
    }, {
      "timestamp" : "2021-06-21T15:08:46Z",
      "value" : 0.0
    }, {
      "timestamp" : "2021-06-22T14:09:01Z",
      "value" : 0.0
    }, {
      "timestamp" : "2021-06-23T14:09:21Z",
      "value" : 0.3242186231667774
    }, {
      "timestamp" : "2021-06-24T14:09:27Z",
      "value" : 0.3221791690693924
    } ],
    "name" : "OPCOUNTER_REPL_INSERT",
    "units" : "SCALAR_PER_SECOND"
  }, {
    "dataPoints" : [ {
      "timestamp" : "2021-06-18T15:09:00Z",
      "value" : null
    }, {
      "timestamp" : "2021-06-19T15:09:39Z",
      "value" : 0.18737974022761206
    }, {
      "timestamp" : "2021-06-20T01:18:52Z",
      "value" : 0.8369016533451635
    }, {
      "timestamp" : "2021-06-20T15:08:59Z",
      "value" : null
    }, {
      "timestamp" : "2021-06-21T15:08:46Z",
      "value" : 0.8733091666439492
    }, {
      "timestamp" : "2021-06-22T14:09:01Z",
      "value" : 0.7803166425001798
    }, {
      "timestamp" : "2021-06-23T14:09:21Z",
      "value" : null
    }, {
      "timestamp" : "2021-06-24T14:09:27Z",
      "value" : 0.3583922095183517
    } ],
    "name" : "OPERATIONS_SCAN_AND_ORDER",
    "units" : "SCALAR_PER_SECOND"
  }, {
    "dataPoints" : [ {
      "timestamp" : "2021-06-18T15:09:00Z",
      "value" : null
    }, {
      "timestamp" : "2021-06-19T15:09:39Z",
      "value" : 0.6630665187495881
    }, {
      "timestamp" : "2021-06-20T01:18:52Z",
      "value" : 0.36621010037803187
    }, {
      "timestamp" : "2021-06-20T15:08:59Z",
      "value" : null
    }, {
      "timestamp" : "2021-06-21T15:08:46Z",
      "value" : 0.7523847753249944
    }, {
      "timestamp" : "2021-06-22T14:09:01Z",
      "value" : 0.36419410865590796
    }, {
      "timestamp" : "2021-06-23T14:09:21Z",
      "value" : null
    }, {
      "timestamp" : "2021-06-24T14:09:27Z",
      "value" : 0.09110964786716289
    } ],
    "name" : "OP_EXECUTION_TIME_READS",
    "units" : "MILLISECONDS"
  }, {
    "dataPoints" : [ {
      "timestamp" : "2021-06-18T15:09:00Z",
      "value" : null
    }, {
      "timestamp" : "2021-06-19T15:09:39Z",
      "value" : 0.7994688243396738
    }, {
      "timestamp" : "2021-06-20T01:18:52Z",
      "value" : 2.1140296422946903
    }, {
      "timestamp" : "2021-06-20T15:08:59Z",
      "value" : null
    }, {
      "timestamp" : "2021-06-21T15:08:46Z",
      "value" : 4.3100011617423455
    }, {
      "timestamp" : "2021-06-22T14:09:01Z",
      "value" : 1.1195928569465468
    }, {
      "timestamp" : "2021-06-23T14:09:21Z",
      "value" : null
    }, {
      "timestamp" : "2021-06-24T14:09:27Z",
      "value" : 10.782566899271846
    } ],
    "name" : "OP_EXECUTION_TIME_WRITES",
    "units" : "MILLISECONDS"
  }, {
    "dataPoints" : [ {
      "timestamp" : "2021-06-18T15:09:00Z",
      "value" : null
    }, {
      "timestamp" : "2021-06-19T15:09:39Z",
      "value" : null
    }, {
      "timestamp" : "2021-06-20T01:18:52Z",
      "value" : 0.1621776570957801
    }, {
      "timestamp" : "2021-06-20T15:08:59Z",
      "value" : null
    }, {
      "timestamp" : "2021-06-21T15:08:46Z",
      "value" : null
    }, {
      "timestamp" : "2021-06-22T14:09:01Z",
      "value" : 0.12049281587963742
    }, {
      "timestamp" : "2021-06-23T14:09:21Z",
      "value" : null
    }, {
      "timestamp" : "2021-06-24T14:09:27Z",
      "value" : 0.21929513569331138
    } ],
    "name" : "OP_EXECUTION_TIME_COMMANDS",
    "units" : "MILLISECONDS"
  }, {
    "dataPoints" : [ {
      "timestamp" : "2021-06-18T15:09:00Z",
      "value" : 12880
    }, {
      "timestamp" : "2021-06-19T15:09:39Z",
      "value" : 10596
    }, {
      "timestamp" : "2021-06-20T01:18:52Z",
      "value" : 9270
    }, {
      "timestamp" : "2021-06-20T15:08:59Z",
      "value" : 9038
    }, {
      "timestamp" : "2021-06-21T15:08:46Z",
      "value" : 24092
    }, {
      "timestamp" : "2021-06-22T14:09:01Z",
      "value" : 47069
    }, {
      "timestamp" : "2021-06-23T14:09:21Z",
      "value" : 23477
    }, {
      "timestamp" : "2021-06-24T14:09:27Z",
      "value" : 16617
    } ],
    "name" : "OPLOG_MASTER_TIME",
    "units" : "SECONDS"
  }, {
    "dataPoints" : [ {
      "timestamp" : "2021-06-18T15:09:00Z",
      "value" : 91.6562268
    }, {
      "timestamp" : "2021-06-19T15:09:39Z",
      "value" : 111.9921552
    }, {
      "timestamp" : "2021-06-20T01:18:52Z",
      "value" : 125.669898
    }, {
      "timestamp" : "2021-06-20T15:08:59Z",
      "value" : 134.0846244
    }, {
      "timestamp" : "2021-06-21T15:08:46Z",
      "value" : 83.6846676
    }, {
      "timestamp" : "2021-06-22T14:09:01Z",
      "value" : 25.897701599999998
    }, {
      "timestamp" : "2021-06-23T14:09:21Z",
      "value" : 50.1102684
    }, {
      "timestamp" : "2021-06-24T14:09:27Z",
      "value" : 70.8760152
    } ],
    "name" : "OPLOG_RATE_GB_PER_HOUR",
    "units" : "GIGABYTES_PER_HOUR"
  }, {
    "dataPoints" : [ {
      "timestamp" : "2021-06-18T15:09:00Z",
      "value" : null
    }, {
      "timestamp" : "2021-06-19T15:09:39Z",
      "value" : null
    }, {
      "timestamp" : "2021-06-20T01:18:52Z",
      "value" : 1918.976177999743
    }, {
      "timestamp" : "2021-06-20T15:08:59Z",
      "value" : 11021.096800315107
    }, {
      "timestamp" : "2021-06-21T15:08:46Z",
      "value" : 22962.43030748486
    }, {
      "timestamp" : "2021-06-22T14:09:01Z",
      "value" : 23273.92023041595
    }, {
      "timestamp" : "2021-06-23T14:09:21Z",
      "value" : null
    }, {
      "timestamp" : "2021-06-24T14:09:27Z",
      "value" : null
    } ],
    "name" : "QUERY_EXECUTOR_SCANNED",
    "units" : "SCALAR_PER_SECOND"
  }, {
    "dataPoints" : [ {
      "timestamp" : "2021-06-18T15:09:00Z",
      "value" : null
    }, {
      "timestamp" : "2021-06-19T15:09:39Z",
      "value" : 16663.60653581737
    }, {
      "timestamp" : "2021-06-20T01:18:52Z",
      "value" : 74117.72807806551
    }, {
      "timestamp" : "2021-06-20T15:08:59Z",
      "value" : null
    }, {
      "timestamp" : "2021-06-21T15:08:46Z",
      "value" : 98086.76351979375
    }, {
      "timestamp" : "2021-06-22T14:09:01Z",
      "value" : 98675.17788030417
    }, {
      "timestamp" : "2021-06-23T14:09:21Z",
      "value" : null
    }, {
      "timestamp" : "2021-06-24T14:09:27Z",
      "value" : 43255.50355465307
    } ],
    "name" : "QUERY_EXECUTOR_SCANNED_OBJECTS",
    "units" : "SCALAR_PER_SECOND"
  }, {
    "dataPoints" : [ {
      "timestamp" : "2021-06-18T15:09:00Z",
      "value" : null
    }, {
      "timestamp" : "2021-06-19T15:09:39Z",
      "value" : null
    }, {
      "timestamp" : "2021-06-20T01:18:52Z",
      "value" : 0.8465916658962376
    }, {
      "timestamp" : "2021-06-20T15:08:59Z",
      "value" : null
    }, {
      "timestamp" : "2021-06-21T15:08:46Z",
      "value" : 9.895771767876628
    }, {
      "timestamp" : "2021-06-22T14:09:01Z",
      "value" : 10.038635124334325
    }, {
      "timestamp" : "2021-06-23T14:09:21Z",
      "value" : null
    }, {
      "timestamp" : "2021-06-24T14:09:27Z",
      "value" : null
    } ],
    "name" : "QUERY_TARGETING_SCANNED_PER_RETURNED",
    "units" : "SCALAR"
  }, {
    "dataPoints" : [ {
      "timestamp" : "2021-06-18T15:09:00Z",
      "value" : null
    }, {
      "timestamp" : "2021-06-19T15:09:39Z",
      "value" : 33.36308324971482
    }, {
      "timestamp" : "2021-06-20T01:18:52Z",
      "value" : 32.69840011847309
    }, {
      "timestamp" : "2021-06-20T15:08:59Z",
      "value" : null
    }, {
      "timestamp" : "2021-06-21T15:08:46Z",
      "value" : 42.27097098364078
    }, {
      "timestamp" : "2021-06-22T14:09:01Z",
      "value" : 42.561119775370805
    }, {
      "timestamp" : "2021-06-23T14:09:21Z",
      "value" : null
    }, {
      "timestamp" : "2021-06-24T14:09:27Z",
      "value" : 40.95657301188369
    } ],
    "name" : "QUERY_TARGETING_SCANNED_OBJECTS_PER_RETURNED",
    "units" : "SCALAR"
  }, {
    "dataPoints" : [ {
      "timestamp" : "2021-06-18T15:09:00Z",
      "value" : 127
    }, {
      "timestamp" : "2021-06-19T15:09:39Z",
      "value" : 127
    }, {
      "timestamp" : "2021-06-20T01:18:52Z",
      "value" : 127
    }, {
      "timestamp" : "2021-06-20T15:08:59Z",
      "value" : 127
    }, {
      "timestamp" : "2021-06-21T15:08:46Z",
      "value" : 127
    }, {
      "timestamp" : "2021-06-22T14:09:01Z",
      "value" : 127
    }, {
      "timestamp" : "2021-06-23T14:09:21Z",
      "value" : 127
    }, {
      "timestamp" : "2021-06-24T14:09:27Z",
      "value" : 127
    } ],
    "name" : "TICKETS_AVAILABLE_READS",
    "units" : "SCALAR"
  }, {
    "dataPoints" : [ {
      "timestamp" : "2021-06-18T15:09:00Z",
      "value" : 128
    }, {
      "timestamp" : "2021-06-19T15:09:39Z",
      "value" : 128
    }, {
      "timestamp" : "2021-06-20T01:18:52Z",
      "value" : 127
    }, {
      "timestamp" : "2021-06-20T15:08:59Z",
      "value" : 128
    }, {
      "timestamp" : "2021-06-21T15:08:46Z",
      "value" : 126
    }, {
      "timestamp" : "2021-06-22T14:09:01Z",
      "value" : 128
    }, {
      "timestamp" : "2021-06-23T14:09:21Z",
      "value" : 128
    }, {
      "timestamp" : "2021-06-24T14:09:27Z",
      "value" : 128
    } ],
    "name" : "TICKETS_AVAILABLE_WRITE",
    "units" : "SCALAR"
  }, {
    "dataPoints" : [ {
      "timestamp" : "2021-06-18T15:09:27Z",
      "value" : null
    }, {
      "timestamp" : "2021-06-18T16:21:27Z",
      "value" : null
    }, {
      "timestamp" : "2021-06-18T16:23:28Z",
      "value" : null
    }, {
      "timestamp" : "2021-06-19T15:09:28Z",
      "value" : 77.74881778119749
    }, {
      "timestamp" : "2021-06-20T01:19:28Z",
      "value" : 157.58702804631324
    }, {
      "timestamp" : "2021-06-20T15:09:38Z",
      "value" : null
    }, {
      "timestamp" : "2021-06-21T15:09:39Z",
      "value" : 138.89749804288834
    }, {
      "timestamp" : "2021-06-22T14:09:39Z",
      "value" : 124.5070068314699
    }, {
      "timestamp" : "2021-06-23T14:09:44Z",
      "value" : null
    }, {
      "timestamp" : "2021-06-24T14:08:44Z",
      "value" : 92.02512388390346
    } ],
    "name" : "PROCESS_CPU_USER",
    "units" : "PERCENT"
  }, {
    "dataPoints" : [ {
      "timestamp" : "2021-06-18T15:09:27Z",
      "value" : null
    }, {
      "timestamp" : "2021-06-18T16:21:27Z",
      "value" : null
    }, {
      "timestamp" : "2021-06-18T16:23:28Z",
      "value" : null
    }, {
      "timestamp" : "2021-06-19T15:09:28Z",
      "value" : 12.077027629315763
    }, {
      "timestamp" : "2021-06-20T01:19:28Z",
      "value" : 20.154196977060344
    }, {
      "timestamp" : "2021-06-20T15:09:38Z",
      "value" : null
    }, {
      "timestamp" : "2021-06-21T15:09:39Z",
      "value" : 20.567525462474762
    }, {
      "timestamp" : "2021-06-22T14:09:39Z",
      "value" : 21.452606182660904
    }, {
      "timestamp" : "2021-06-23T14:09:44Z",
      "value" : null
    }, {
      "timestamp" : "2021-06-24T14:08:44Z",
      "value" : 15.395102864637519
    } ],
    "name" : "PROCESS_CPU_KERNEL",
    "units" : "PERCENT"
  }, {
    "dataPoints" : [ {
      "timestamp" : "2021-06-18T15:09:27Z",
      "value" : null
    }, {
      "timestamp" : "2021-06-18T16:21:27Z",
      "value" : 0.0
    }, {
      "timestamp" : "2021-06-18T16:23:28Z",
      "value" : null
    }, {
      "timestamp" : "2021-06-19T15:09:28Z",
      "value" : 0.0
    }, {
      "timestamp" : "2021-06-20T01:19:28Z",
      "value" : 0.0
    }, {
      "timestamp" : "2021-06-20T15:09:38Z",
      "value" : 0.0
    }, {
      "timestamp" : "2021-06-21T15:09:39Z",
      "value" : 0.0
    }, {
      "timestamp" : "2021-06-22T14:09:39Z",
      "value" : 0.0
    }, {
      "timestamp" : "2021-06-23T14:09:44Z",
      "value" : 0.0
    }, {
      "timestamp" : "2021-06-24T14:08:44Z",
      "value" : 0.0
    } ],
    "name" : "PROCESS_CPU_CHILDREN_USER",
    "units" : "PERCENT"
  }, {
    "dataPoints" : [ {
      "timestamp" : "2021-06-18T15:09:27Z",
      "value" : null
    }, {
      "timestamp" : "2021-06-18T16:21:27Z",
      "value" : 0.0
    }, {
      "timestamp" : "2021-06-18T16:23:28Z",
      "value" : null
    }, {
      "timestamp" : "2021-06-19T15:09:28Z",
      "value" : 0.0
    }, {
      "timestamp" : "2021-06-20T01:19:28Z",
      "value" : 0.0
    }, {
      "timestamp" : "2021-06-20T15:09:38Z",
      "value" : 0.0
    }, {
      "timestamp" : "2021-06-21T15:09:39Z",
      "value" : 0.0
    }, {
      "timestamp" : "2021-06-22T14:09:39Z",
      "value" : 0.0
    }, {
      "timestamp" : "2021-06-23T14:09:44Z",
      "value" : 0.0
    }, {
      "timestamp" : "2021-06-24T14:08:44Z",
      "value" : 0.0
    } ],
    "name" : "PROCESS_CPU_CHILDREN_KERNEL",
    "units" : "PERCENT"
  }, {
    "dataPoints" : [ {
      "timestamp" : "2021-06-18T15:09:27Z",
      "value" : null
    }, {
      "timestamp" : "2021-06-18T16:21:27Z",
      "value" : null
    }, {
      "timestamp" : "2021-06-18T16:23:28Z",
      "value" : null
    }, {
      "timestamp" : "2021-06-19T15:09:28Z",
      "value" : 4.859301111324843
    }, {
      "timestamp" : "2021-06-20T01:19:28Z",
      "value" : 9.849189252894577
    }, {
      "timestamp" : "2021-06-20T15:09:38Z",
      "value" : null
    }, {
      "timestamp" : "2021-06-21T15:09:39Z",
      "value" : 8.681093627680522
    }, {
      "timestamp" : "2021-06-22T14:09:39Z",
      "value" : 7.781687926966868
    }, {
      "timestamp" : "2021-06-23T14:09:44Z",
      "value" : null
    }, {
      "timestamp" : "2021-06-24T14:08:44Z",
      "value" : 5.751570242743966
    } ],
    "name" : "PROCESS_NORMALIZED_CPU_USER",
    "units" : "PERCENT"
  }, {
    "dataPoints" : [ {
      "timestamp" : "2021-06-18T15:09:27Z",
      "value" : null
    }, {
      "timestamp" : "2021-06-18T16:21:27Z",
      "value" : null
    }, {
      "timestamp" : "2021-06-18T16:23:28Z",
      "value" : null
    }, {
      "timestamp" : "2021-06-19T15:09:28Z",
      "value" : 0.7548142268322352
    }, {
      "timestamp" : "2021-06-20T01:19:28Z",
      "value" : 1.2596373110662715
    }, {
      "timestamp" : "2021-06-20T15:09:38Z",
      "value" : null
    }, {
      "timestamp" : "2021-06-21T15:09:39Z",
      "value" : 1.2854703414046726
    }, {
      "timestamp" : "2021-06-22T14:09:39Z",
      "value" : 1.3407878864163065
    }, {
      "timestamp" : "2021-06-23T14:09:44Z",
      "value" : null
    }, {
      "timestamp" : "2021-06-24T14:08:44Z",
      "value" : 0.9621939290398449
    } ],
    "name" : "PROCESS_NORMALIZED_CPU_KERNEL",
    "units" : "PERCENT"
  }, {
    "dataPoints" : [ {
      "timestamp" : "2021-06-18T15:09:27Z",
      "value" : null
    }, {
      "timestamp" : "2021-06-18T16:21:27Z",
      "value" : 0.0
    }, {
      "timestamp" : "2021-06-18T16:23:28Z",
      "value" : null
    }, {
      "timestamp" : "2021-06-19T15:09:28Z",
      "value" : 0.0
    }, {
      "timestamp" : "2021-06-20T01:19:28Z",
      "value" : 0.0
    }, {
      "timestamp" : "2021-06-20T15:09:38Z",
      "value" : 0.0
    }, {
      "timestamp" : "2021-06-21T15:09:39Z",
      "value" : 0.0
    }, {
      "timestamp" : "2021-06-22T14:09:39Z",
      "value" : 0.0
    }, {
      "timestamp" : "2021-06-23T14:09:44Z",
      "value" : 0.0
    }, {
      "timestamp" : "2021-06-24T14:08:44Z",
      "value" : 0.0
    } ],
    "name" : "PROCESS_NORMALIZED_CPU_CHILDREN_USER",
    "units" : "PERCENT"
  }, {
    "dataPoints" : [ {
      "timestamp" : "2021-06-18T15:09:27Z",
      "value" : null
    }, {
      "timestamp" : "2021-06-18T16:21:27Z",
      "value" : 0.0
    }, {
      "timestamp" : "2021-06-18T16:23:28Z",
      "value" : null
    }, {
      "timestamp" : "2021-06-19T15:09:28Z",
      "value" : 0.0
    }, {
      "timestamp" : "2021-06-20T01:19:28Z",
      "value" : 0.0
    }, {
      "timestamp" : "2021-06-20T15:09:38Z",
      "value" : 0.0
    }, {
      "timestamp" : "2021-06-21T15:09:39Z",
      "value" : 0.0
    }, {
      "timestamp" : "2021-06-22T14:09:39Z",
      "value" : 0.0
    }, {
      "timestamp" : "2021-06-23T14:09:44Z",
      "value" : 0.0
    }, {
      "timestamp" : "2021-06-24T14:08:44Z",
      "value" : 0.0
    } ],
    "name" : "PROCESS_NORMALIZED_CPU_CHILDREN_KERNEL",
    "units" : "PERCENT"
  }, {
    "dataPoints" : [ ],
    "name" : "FTS_PROCESS_RESIDENT_MEMORY",
    "units" : "BYTES"
  }, {
    "dataPoints" : [ ],
    "name" : "FTS_PROCESS_VIRTUAL_MEMORY",
    "units" : "BYTES"
  }, {
    "dataPoints" : [ ],
    "name" : "FTS_PROCESS_SHARED_MEMORY",
    "units" : "BYTES"
  }, {
    "dataPoints" : [ ],
    "name" : "FTS_DISK_USAGE",
    "units" : "BYTES"
  }, {
    "dataPoints" : [ ],
    "name" : "FTS_PROCESS_CPU_USER",
    "units" : "PERCENT"
  }, {
    "dataPoints" : [ ],
    "name" : "FTS_PROCESS_CPU_KERNEL",
    "units" : "PERCENT"
  }, {
    "dataPoints" : [ ],
    "name" : "FTS_PROCESS_NORMALIZED_CPU_USER",
    "units" : "PERCENT"
  }, {
    "dataPoints" : [ ],
    "name" : "FTS_PROCESS_NORMALIZED_CPU_KERNEL",
    "units" : "PERCENT"
  }, {
    "dataPoints" : [ {
      "timestamp" : "2021-06-18T15:09:27Z",
      "value" : null
    }, {
      "timestamp" : "2021-06-18T16:21:27Z",
      "value" : 65.51410920700295
    }, {
      "timestamp" : "2021-06-19T15:09:28Z",
      "value" : null
    }, {
      "timestamp" : "2021-06-20T15:09:38Z",
      "value" : 128.23889367920046
    }, {
      "timestamp" : "2021-06-21T15:09:39Z",
      "value" : 122.76366181304826
    }, {
      "timestamp" : "2021-06-22T14:09:39Z",
      "value" : 106.74691450177072
    }, {
      "timestamp" : "2021-06-23T14:09:43Z",
      "value" : null
    }, {
      "timestamp" : "2021-06-24T14:08:44Z",
      "value" : 77.64456020139473
    } ],
    "name" : "SYSTEM_CPU_USER",
    "units" : "PERCENT"
  }, {
    "dataPoints" : [ {
      "timestamp" : "2021-06-18T15:09:27Z",
      "value" : null
    }, {
      "timestamp" : "2021-06-18T16:21:27Z",
      "value" : 10.715701052959064
    }, {
      "timestamp" : "2021-06-19T15:09:28Z",
      "value" : null
    }, {
      "timestamp" : "2021-06-20T15:09:38Z",
      "value" : 16.0362179958543
    }, {
      "timestamp" : "2021-06-21T15:09:39Z",
      "value" : 17.2349553210949
    }, {
      "timestamp" : "2021-06-22T14:09:39Z",
      "value" : 17.397226819996824
    }, {
      "timestamp" : "2021-06-23T14:09:43Z",
      "value" : null
    }, {
      "timestamp" : "2021-06-24T14:08:44Z",
      "value" : 13.37057094965581
    } ],
    "name" : "SYSTEM_CPU_KERNEL",
    "units" : "PERCENT"
  }, {
    "dataPoints" : [ {
      "timestamp" : "2021-06-18T15:09:27Z",
      "value" : null
    }, {
      "timestamp" : "2021-06-18T16:21:27Z",
      "value" : 0.0
    }, {
      "timestamp" : "2021-06-19T15:09:28Z",
      "value" : null
    }, {
      "timestamp" : "2021-06-20T15:09:38Z",
      "value" : 4.6290657837001424E-5
    }, {
      "timestamp" : "2021-06-21T15:09:39Z",
      "value" : 5.787018148852801E-5
    }, {
      "timestamp" : "2021-06-22T14:09:39Z",
      "value" : 4.830899029222385E-5
    }, {
      "timestamp" : "2021-06-23T14:09:43Z",
      "value" : null
    }, {
      "timestamp" : "2021-06-24T14:08:44Z",
      "value" : 4.632831216276174E-5
    } ],
    "name" : "SYSTEM_CPU_NICE",
    "units" : "PERCENT"
  }, {
    "dataPoints" : [ {
      "timestamp" : "2021-06-18T15:09:27Z",
      "value" : null
    }, {
      "timestamp" : "2021-06-18T16:21:27Z",
      "value" : 7.9115447720564
    }, {
      "timestamp" : "2021-06-19T15:09:28Z",
      "value" : null
    }, {
      "timestamp" : "2021-06-20T15:09:38Z",
      "value" : 10.196443201756304
    }, {
      "timestamp" : "2021-06-21T15:09:39Z",
      "value" : 7.131249872540925
    }, {
      "timestamp" : "2021-06-22T14:09:39Z",
      "value" : 4.608955450572337
    }, {
      "timestamp" : "2021-06-23T14:09:43Z",
      "value" : null
    }, {
      "timestamp" : "2021-06-24T14:08:44Z",
      "value" : 6.918774377089204
    } ],
    "name" : "SYSTEM_CPU_IOWAIT",
    "units" : "PERCENT"
  }, {
    "dataPoints" : [ {
      "timestamp" : "2021-06-18T15:09:27Z",
      "value" : null
    }, {
      "timestamp" : "2021-06-18T16:21:27Z",
      "value" : 0.0
    }, {
      "timestamp" : "2021-06-19T15:09:28Z",
      "value" : 0.0
    }, {
      "timestamp" : "2021-06-20T15:09:38Z",
      "value" : 0.0
    }, {
      "timestamp" : "2021-06-21T15:09:39Z",
      "value" : 0.0
    }, {
      "timestamp" : "2021-06-22T14:09:39Z",
      "value" : 0.0
    }, {
      "timestamp" : "2021-06-23T14:09:43Z",
      "value" : 0.0
    }, {
      "timestamp" : "2021-06-24T14:08:44Z",
      "value" : 0.0
    } ],
    "name" : "SYSTEM_CPU_IRQ",
    "units" : "PERCENT"
  }, {
    "dataPoints" : [ {
      "timestamp" : "2021-06-18T15:09:27Z",
      "value" : null
    }, {
      "timestamp" : "2021-06-18T16:21:27Z",
      "value" : 1.4708278858226451
    }, {
      "timestamp" : "2021-06-19T15:09:28Z",
      "value" : null
    }, {
      "timestamp" : "2021-06-20T15:09:38Z",
      "value" : 3.2700877962503734
    }, {
      "timestamp" : "2021-06-21T15:09:39Z",
      "value" : 3.852209649037951
    }, {
      "timestamp" : "2021-06-22T14:09:39Z",
      "value" : 3.8187894508575764
    }, {
      "timestamp" : "2021-06-23T14:09:43Z",
      "value" : null
    }, {
      "timestamp" : "2021-06-24T14:08:44Z",
      "value" : 1.864448176756224
    } ],
    "name" : "SYSTEM_CPU_SOFTIRQ",
    "units" : "PERCENT"
  }, {
    "dataPoints" : [ {
      "timestamp" : "2021-06-18T15:09:27Z",
      "value" : null
    }, {
      "timestamp" : "2021-06-18T16:21:27Z",
      "value" : 0.0
    }, {
      "timestamp" : "2021-06-19T15:09:28Z",
      "value" : 0.0
    }, {
      "timestamp" : "2021-06-20T15:09:38Z",
      "value" : 0.0
    }, {
      "timestamp" : "2021-06-21T15:09:39Z",
      "value" : 0.0
    }, {
      "timestamp" : "2021-06-22T14:09:39Z",
      "value" : 0.0
    }, {
      "timestamp" : "2021-06-23T14:09:43Z",
      "value" : 0.0
    }, {
      "timestamp" : "2021-06-24T14:08:44Z",
      "value" : 0.0
    } ],
    "name" : "SYSTEM_CPU_GUEST",
    "units" : "PERCENT"
  }, {
    "dataPoints" : [ {
      "timestamp" : "2021-06-18T15:09:27Z",
      "value" : null
    }, {
      "timestamp" : "2021-06-18T16:21:27Z",
      "value" : 0.0
    }, {
      "timestamp" : "2021-06-19T15:09:28Z",
      "value" : 0.0
    }, {
      "timestamp" : "2021-06-20T15:09:38Z",
      "value" : 0.0
    }, {
      "timestamp" : "2021-06-21T15:09:39Z",
      "value" : 0.0
    }, {
      "timestamp" : "2021-06-22T14:09:39Z",
      "value" : 0.0
    }, {
      "timestamp" : "2021-06-23T14:09:43Z",
      "value" : 0.0
    }, {
      "timestamp" : "2021-06-24T14:08:44Z",
      "value" : 0.0
    } ],
    "name" : "SYSTEM_CPU_STEAL",
    "units" : "PERCENT"
  }, {
    "dataPoints" : [ {
      "timestamp" : "2021-06-18T15:09:27Z",
      "value" : null
    }, {
      "timestamp" : "2021-06-18T16:21:27Z",
      "value" : 4.094631825437684
    }, {
      "timestamp" : "2021-06-19T15:09:28Z",
      "value" : null
    }, {
      "timestamp" : "2021-06-20T15:09:38Z",
      "value" : 8.014930854950029
    }, {
      "timestamp" : "2021-06-21T15:09:39Z",
      "value" : 7.672728863315516
    }, {
      "timestamp" : "2021-06-22T14:09:39Z",
      "value" : 6.67168215636067
    }, {
      "timestamp" : "2021-06-23T14:09:43Z",
      "value" : null
    }, {
      "timestamp" : "2021-06-24T14:08:44Z",
      "value" : 4.85278501258717
    } ],
    "name" : "SYSTEM_NORMALIZED_CPU_USER",
    "units" : "PERCENT"
  }, {
    "dataPoints" : [ {
      "timestamp" : "2021-06-18T15:09:27Z",
      "value" : null
    }, {
      "timestamp" : "2021-06-18T16:21:27Z",
      "value" : 0.6697313158099415
    }, {
      "timestamp" : "2021-06-19T15:09:28Z",
      "value" : null
    }, {
      "timestamp" : "2021-06-20T15:09:38Z",
      "value" : 1.0022636247408938
    }, {
      "timestamp" : "2021-06-21T15:09:39Z",
      "value" : 1.0771847075684313
    }, {
      "timestamp" : "2021-06-22T14:09:39Z",
      "value" : 1.0873266762498015
    }, {
      "timestamp" : "2021-06-23T14:09:43Z",
      "value" : null
    }, {
      "timestamp" : "2021-06-24T14:08:44Z",
      "value" : 0.8356606843534882
    } ],
    "name" : "SYSTEM_NORMALIZED_CPU_KERNEL",
    "units" : "PERCENT"
  }, {
    "dataPoints" : [ {
      "timestamp" : "2021-06-18T15:09:27Z",
      "value" : null
    }, {
      "timestamp" : "2021-06-18T16:21:27Z",
      "value" : 0.0
    }, {
      "timestamp" : "2021-06-19T15:09:28Z",
      "value" : null
    }, {
      "timestamp" : "2021-06-20T15:09:38Z",
      "value" : 2.893166114812589E-6
    }, {
      "timestamp" : "2021-06-21T15:09:39Z",
      "value" : 3.6168863430330006E-6
    }, {
      "timestamp" : "2021-06-22T14:09:39Z",
      "value" : 3.019311893263991E-6
    }, {
      "timestamp" : "2021-06-23T14:09:43Z",
      "value" : null
    }, {
      "timestamp" : "2021-06-24T14:08:44Z",
      "value" : 2.8955195101726087E-6
    } ],
    "name" : "SYSTEM_NORMALIZED_CPU_NICE",
    "units" : "PERCENT"
  }, {
    "dataPoints" : [ {
      "timestamp" : "2021-06-18T15:09:27Z",
      "value" : null
    }, {
      "timestamp" : "2021-06-18T16:21:27Z",
      "value" : 0.494471548253525
    }, {
      "timestamp" : "2021-06-19T15:09:28Z",
      "value" : null
    }, {
      "timestamp" : "2021-06-20T15:09:38Z",
      "value" : 0.637277700109769
    }, {
      "timestamp" : "2021-06-21T15:09:39Z",
      "value" : 0.4457031170338078
    }, {
      "timestamp" : "2021-06-22T14:09:39Z",
      "value" : 0.28805971566077104
    }, {
      "timestamp" : "2021-06-23T14:09:43Z",
      "value" : null
    }, {
      "timestamp" : "2021-06-24T14:08:44Z",
      "value" : 0.43242339856807527
    } ],
    "name" : "SYSTEM_NORMALIZED_CPU_IOWAIT",
    "units" : "PERCENT"
  }, {
    "dataPoints" : [ {
      "timestamp" : "2021-06-18T15:09:27Z",
      "value" : null
    }, {
      "timestamp" : "2021-06-18T16:21:27Z",
      "value" : 0.0
    }, {
      "timestamp" : "2021-06-19T15:09:28Z",
      "value" : 0.0
    }, {
      "timestamp" : "2021-06-20T15:09:38Z",
      "value" : 0.0
    }, {
      "timestamp" : "2021-06-21T15:09:39Z",
      "value" : 0.0
    }, {
      "timestamp" : "2021-06-22T14:09:39Z",
      "value" : 0.0
    }, {
      "timestamp" : "2021-06-23T14:09:43Z",
      "value" : 0.0
    }, {
      "timestamp" : "2021-06-24T14:08:44Z",
      "value" : 0.0
    } ],
    "name" : "SYSTEM_NORMALIZED_CPU_IRQ",
    "units" : "PERCENT"
  }, {
    "dataPoints" : [ {
      "timestamp" : "2021-06-18T15:09:27Z",
      "value" : null
    }, {
      "timestamp" : "2021-06-18T16:21:27Z",
      "value" : 0.09192674286391532
    }, {
      "timestamp" : "2021-06-19T15:09:28Z",
      "value" : null
    }, {
      "timestamp" : "2021-06-20T15:09:38Z",
      "value" : 0.20438048726564834
    }, {
      "timestamp" : "2021-06-21T15:09:39Z",
      "value" : 0.24076310306487195
    }, {
      "timestamp" : "2021-06-22T14:09:39Z",
      "value" : 0.23867434067859852
    }, {
      "timestamp" : "2021-06-23T14:09:43Z",
      "value" : null
    }, {
      "timestamp" : "2021-06-24T14:08:44Z",
      "value" : 0.116528011047264
    } ],
    "name" : "SYSTEM_NORMALIZED_CPU_SOFTIRQ",
    "units" : "PERCENT"
  }, {
    "dataPoints" : [ {
      "timestamp" : "2021-06-18T15:09:27Z",
      "value" : null
    }, {
      "timestamp" : "2021-06-18T16:21:27Z",
      "value" : 0.0
    }, {
      "timestamp" : "2021-06-19T15:09:28Z",
      "value" : 0.0
    }, {
      "timestamp" : "2021-06-20T15:09:38Z",
      "value" : 0.0
    }, {
      "timestamp" : "2021-06-21T15:09:39Z",
      "value" : 0.0
    }, {
      "timestamp" : "2021-06-22T14:09:39Z",
      "value" : 0.0
    }, {
      "timestamp" : "2021-06-23T14:09:43Z",
      "value" : 0.0
    }, {
      "timestamp" : "2021-06-24T14:08:44Z",
      "value" : 0.0
    } ],
    "name" : "SYSTEM_NORMALIZED_CPU_GUEST",
    "units" : "PERCENT"
  }, {
    "dataPoints" : [ {
      "timestamp" : "2021-06-18T15:09:27Z",
      "value" : null
    }, {
      "timestamp" : "2021-06-18T16:21:27Z",
      "value" : 0.0
    }, {
      "timestamp" : "2021-06-19T15:09:28Z",
      "value" : 0.0
    }, {
      "timestamp" : "2021-06-20T15:09:38Z",
      "value" : 0.0
    }, {
      "timestamp" : "2021-06-21T15:09:39Z",
      "value" : 0.0
    }, {
      "timestamp" : "2021-06-22T14:09:39Z",
      "value" : 0.0
    }, {
      "timestamp" : "2021-06-23T14:09:43Z",
      "value" : 0.0
    }, {
      "timestamp" : "2021-06-24T14:08:44Z",
      "value" : 0.0
    } ],
    "name" : "SYSTEM_NORMALIZED_CPU_STEAL",
    "units" : "PERCENT"
  }, {
    "dataPoints" : [ {
      "timestamp" : "2021-06-18T15:09:27Z",
      "value" : null
    }, {
      "timestamp" : "2021-06-18T16:21:27Z",
      "value" : 7879697.329593224
    }, {
      "timestamp" : "2021-06-19T15:09:28Z",
      "value" : null
    }, {
      "timestamp" : "2021-06-20T15:09:38Z",
      "value" : 4712250.465765026
    }, {
      "timestamp" : "2021-06-21T15:09:39Z",
      "value" : 3446280.653401108
    }, {
      "timestamp" : "2021-06-22T14:09:39Z",
      "value" : 3541460.656258551
    }, {
      "timestamp" : "2021-06-23T14:09:43Z",
      "value" : null
    }, {
      "timestamp" : "2021-06-24T14:08:44Z",
      "value" : 4742206.433098466
    } ],
    "name" : "SYSTEM_NETWORK_IN",
    "units" : "BYTES_PER_SECOND"
  }, {
    "dataPoints" : [ {
      "timestamp" : "2021-06-18T15:09:27Z",
      "value" : null
    }, {
      "timestamp" : "2021-06-18T16:21:27Z",
      "value" : 4658967.1112329215
    }, {
      "timestamp" : "2021-06-19T15:09:28Z",
      "value" : null
    }, {
      "timestamp" : "2021-06-20T15:09:38Z",
      "value" : 2.062400276906086E7
    }, {
      "timestamp" : "2021-06-21T15:09:39Z",
      "value" : 1.464128420164184E7
    }, {
      "timestamp" : "2021-06-22T14:09:39Z",
      "value" : 8736535.551328706
    }, {
      "timestamp" : "2021-06-23T14:09:43Z",
      "value" : null
    }, {
      "timestamp" : "2021-06-24T14:08:44Z",
      "value" : 8640120.165565342
    } ],
    "name" : "SYSTEM_NETWORK_OUT",
    "units" : "BYTES_PER_SECOND"
  }, {
    "dataPoints" : [ {
      "timestamp" : "2021-06-18T15:09:27Z",
      "value" : null
    }, {
      "timestamp" : "2021-06-18T16:21:27Z",
      "value" : 0.5013870318998819
    }, {
      "timestamp" : "2021-06-19T15:09:28Z",
      "value" : null
    }, {
      "timestamp" : "2021-06-20T15:09:38Z",
      "value" : 0.0
    }, {
      "timestamp" : "2021-06-21T15:09:39Z",
      "value" : 0.0
    }, {
      "timestamp" : "2021-06-22T14:09:39Z",
      "value" : 0.0
    }, {
      "timestamp" : "2021-06-23T14:09:43Z",
      "value" : 0.0
    }, {
      "timestamp" : "2021-06-24T14:08:44Z",
      "value" : 0.0
    } ],
    "name" : "SWAP_IO_IN",
    "units" : "SCALAR_PER_SECOND"
  }, {
    "dataPoints" : [ {
      "timestamp" : "2021-06-18T15:09:27Z",
      "value" : null
    }, {
      "timestamp" : "2021-06-18T16:21:27Z",
      "value" : 0.8486079681186367
    }, {
      "timestamp" : "2021-06-19T15:09:28Z",
      "value" : null
    }, {
      "timestamp" : "2021-06-20T15:09:38Z",
      "value" : 0.0
    }, {
      "timestamp" : "2021-06-21T15:09:39Z",
      "value" : 0.0
    }, {
      "timestamp" : "2021-06-22T14:09:39Z",
      "value" : 0.0
    }, {
      "timestamp" : "2021-06-23T14:09:43Z",
      "value" : 0.0
    }, {
      "timestamp" : "2021-06-24T14:08:44Z",
      "value" : 0.0
    } ],
    "name" : "SWAP_IO_OUT",
    "units" : "SCALAR_PER_SECOND"
  }, {
    "dataPoints" : [ {
      "timestamp" : "2021-06-18T15:09:27Z",
      "value" : 65262592
    }, {
      "timestamp" : "2021-06-19T15:09:28Z",
      "value" : 64541766
    }, {
      "timestamp" : "2021-06-20T15:09:38Z",
      "value" : 65121167
    }, {
      "timestamp" : "2021-06-21T15:09:39Z",
      "value" : 65293351
    }, {
      "timestamp" : "2021-06-22T14:09:39Z",
      "value" : 65311450
    }, {
      "timestamp" : "2021-06-23T14:09:43Z",
      "value" : 63600135
    }, {
      "timestamp" : "2021-06-24T14:08:44Z",
      "value" : 65296211
    } ],
    "name" : "SYSTEM_MEMORY_USED",
    "units" : "KILOBYTES"
  }, {
    "dataPoints" : [ {
      "timestamp" : "2021-06-18T15:09:27Z",
      "value" : 32416698
    }, {
      "timestamp" : "2021-06-19T15:09:28Z",
      "value" : 39307343
    }, {
      "timestamp" : "2021-06-20T15:09:38Z",
      "value" : 38702091
    }, {
      "timestamp" : "2021-06-21T15:09:39Z",
      "value" : 39002133
    }, {
      "timestamp" : "2021-06-22T14:09:39Z",
      "value" : 37864059
    }, {
      "timestamp" : "2021-06-23T14:09:43Z",
      "value" : 38245982
    }, {
      "timestamp" : "2021-06-24T14:08:44Z",
      "value" : 37182905
    } ],
    "name" : "SYSTEM_MEMORY_AVAILABLE",
    "units" : "KILOBYTES"
  }, {
    "dataPoints" : [ {
      "timestamp" : "2021-06-18T15:09:27Z",
      "value" : 544268
    }, {
      "timestamp" : "2021-06-19T15:09:28Z",
      "value" : 1265097
    }, {
      "timestamp" : "2021-06-20T15:09:38Z",
      "value" : 685697
    }, {
      "timestamp" : "2021-06-21T15:09:39Z",
      "value" : 513513
    }, {
      "timestamp" : "2021-06-22T14:09:39Z",
      "value" : 495414
    }, {
      "timestamp" : "2021-06-23T14:09:43Z",
      "value" : 2206725
    }, {
      "timestamp" : "2021-06-24T14:08:44Z",
      "value" : 510649
    } ],
    "name" : "SYSTEM_MEMORY_FREE",
    "units" : "KILOBYTES"
  }, {
    "dataPoints" : [ {
      "timestamp" : "2021-06-18T15:09:27Z",
      "value" : 929
    }, {
      "timestamp" : "2021-06-19T15:09:28Z",
      "value" : 970
    }, {
      "timestamp" : "2021-06-20T15:09:38Z",
      "value" : 971
    }, {
      "timestamp" : "2021-06-21T15:09:39Z",
      "value" : 971
    }, {
      "timestamp" : "2021-06-22T14:09:39Z",
      "value" : 971
    }, {
      "timestamp" : "2021-06-23T14:09:43Z",
      "value" : 969
    }, {
      "timestamp" : "2021-06-24T14:08:44Z",
      "value" : 972
    } ],
    "name" : "SYSTEM_MEMORY_SHARED",
    "units" : "KILOBYTES"
  }, {
    "dataPoints" : [ {
      "timestamp" : "2021-06-18T15:09:27Z",
      "value" : 30875886
    }, {
      "timestamp" : "2021-06-19T15:09:28Z",
      "value" : 37194581
    }, {
      "timestamp" : "2021-06-20T15:09:38Z",
      "value" : 37163107
    }, {
      "timestamp" : "2021-06-21T15:09:39Z",
      "value" : 37610387
    }, {
      "timestamp" : "2021-06-22T14:09:39Z",
      "value" : 36496208
    }, {
      "timestamp" : "2021-06-23T14:09:43Z",
      "value" : 35272790
    }, {
      "timestamp" : "2021-06-24T14:08:44Z",
      "value" : 35805536
    } ],
    "name" : "SYSTEM_MEMORY_CACHED",
    "units" : "KILOBYTES"
  }, {
    "dataPoints" : [ {
      "timestamp" : "2021-06-18T15:09:27Z",
      "value" : 3168
    }, {
      "timestamp" : "2021-06-19T15:09:28Z",
      "value" : 4133
    }, {
      "timestamp" : "2021-06-20T15:09:38Z",
      "value" : 3816
    }, {
      "timestamp" : "2021-06-21T15:09:39Z",
      "value" : 3168
    }, {
      "timestamp" : "2021-06-22T14:09:39Z",
      "value" : 3168
    }, {
      "timestamp" : "2021-06-23T14:09:43Z",
      "value" : 4200
    }, {
      "timestamp" : "2021-06-24T14:08:44Z",
      "value" : 4200
    } ],
    "name" : "SYSTEM_MEMORY_BUFFERS",
    "units" : "KILOBYTES"
  }, {
    "dataPoints" : [ {
      "timestamp" : "2021-06-18T15:09:27Z",
      "value" : 9199
    }, {
      "timestamp" : "2021-06-19T15:09:28Z",
      "value" : 91
    }, {
      "timestamp" : "2021-06-20T15:09:38Z",
      "value" : 0
    }, {
      "timestamp" : "2021-06-21T15:09:39Z",
      "value" : 0
    }, {
      "timestamp" : "2021-06-22T14:09:39Z",
      "value" : 0
    }, {
      "timestamp" : "2021-06-23T14:09:43Z",
      "value" : 0
    }, {
      "timestamp" : "2021-06-24T14:08:44Z",
      "value" : 0
    } ],
    "name" : "SWAP_USAGE_USED",
    "units" : "KILOBYTES"
  }, {
    "dataPoints" : [ {
      "timestamp" : "2021-06-18T15:09:27Z",
      "value" : 8379405
    }, {
      "timestamp" : "2021-06-19T15:09:28Z",
      "value" : 8388513
    }, {
      "timestamp" : "2021-06-20T15:09:38Z",
      "value" : 8388604
    }, {
      "timestamp" : "2021-06-21T15:09:39Z",
      "value" : 8388604
    }, {
      "timestamp" : "2021-06-22T14:09:39Z",
      "value" : 8388604
    }, {
      "timestamp" : "2021-06-23T14:09:43Z",
      "value" : 8388604
    }, {
      "timestamp" : "2021-06-24T14:08:44Z",
      "value" : 8388604
    } ],
    "name" : "SWAP_USAGE_FREE",
    "units" : "KILOBYTES"
  } ],
  "processId" : "prod-shard-00-02-etya8.azure.mongodb.net:27017",
  "start" : "2021-06-18T15:09:00Z"
}